[
  {
    "Description": "Email Address",
    "StartLine": 33,
    "EndLine": 33,
    "StartColumn": 5,
    "EndColumn": 21,
    "Match": "security@ndaal.eu",
    "Secret": "security@ndaal.eu",
    "File": "SECURITY.md",
    "SymlinkFile": "",
    "Commit": "34392442d81054ea54901fadfbd765e21a3d7ada",
    "Entropy": 3.7345216,
    "Author": "maintainer ndaal",
    "Email": "git_maint_ndaal@protonmail.com",
    "Date": "2023-08-29T08:33:54Z",
    "Message": "Merge after repo structure setup",
    "Tags": [],
    "RuleID": "email-address",
    "Fingerprint": "34392442d81054ea54901fadfbd765e21a3d7ada:SECURITY.md:email-address:33"
  },
  {
    "Description": "Email Address",
    "StartLine": 33,
    "EndLine": 33,
    "StartColumn": 31,
    "EndColumn": 49,
    "Match": "//security@ndaal.eu",
    "Secret": "//security@ndaal.eu",
    "File": "SECURITY.md",
    "SymlinkFile": "",
    "Commit": "34392442d81054ea54901fadfbd765e21a3d7ada",
    "Entropy": 3.826875,
    "Author": "maintainer ndaal",
    "Email": "git_maint_ndaal@protonmail.com",
    "Date": "2023-08-29T08:33:54Z",
    "Message": "Merge after repo structure setup",
    "Tags": [],
    "RuleID": "email-address",
    "Fingerprint": "34392442d81054ea54901fadfbd765e21a3d7ada:SECURITY.md:email-address:33"
  },
  {
    "Description": "Email Address",
    "StartLine": 39,
    "EndLine": 39,
    "StartColumn": 6,
    "EndColumn": 23,
    "Match": "`security@ndaal.eu",
    "Secret": "`security@ndaal.eu",
    "File": "SECURITY.rst",
    "SymlinkFile": "",
    "Commit": "34392442d81054ea54901fadfbd765e21a3d7ada",
    "Entropy": 3.8365917,
    "Author": "maintainer ndaal",
    "Email": "git_maint_ndaal@protonmail.com",
    "Date": "2023-08-29T08:33:54Z",
    "Message": "Merge after repo structure setup",
    "Tags": [],
    "RuleID": "email-address",
    "Fingerprint": "34392442d81054ea54901fadfbd765e21a3d7ada:SECURITY.rst:email-address:39"
  },
  {
    "Description": "Email Address",
    "StartLine": 39,
    "EndLine": 39,
    "StartColumn": 33,
    "EndColumn": 51,
    "Match": "//security@ndaal.eu",
    "Secret": "//security@ndaal.eu",
    "File": "SECURITY.rst",
    "SymlinkFile": "",
    "Commit": "34392442d81054ea54901fadfbd765e21a3d7ada",
    "Entropy": 3.826875,
    "Author": "maintainer ndaal",
    "Email": "git_maint_ndaal@protonmail.com",
    "Date": "2023-08-29T08:33:54Z",
    "Message": "Merge after repo structure setup",
    "Tags": [],
    "RuleID": "email-address",
    "Fingerprint": "34392442d81054ea54901fadfbd765e21a3d7ada:SECURITY.rst:email-address:39"
  },
  {
    "Description": "Email Address",
    "StartLine": 33,
    "EndLine": 33,
    "StartColumn": 5,
    "EndColumn": 21,
    "Match": "security@ndaal.eu",
    "Secret": "security@ndaal.eu",
    "File": "SECURITY.md",
    "SymlinkFile": "",
    "Commit": "c9dbaef41d098c694bbf56468bc2dbd61b5a8039",
    "Entropy": 3.7345216,
    "Author": "Automator",
    "Email": "",
    "Date": "2023-08-29T06:34:09Z",
    "Message": "Automation: repo structure setup",
    "Tags": [],
    "RuleID": "email-address",
    "Fingerprint": "c9dbaef41d098c694bbf56468bc2dbd61b5a8039:SECURITY.md:email-address:33"
  },
  {
    "Description": "Email Address",
    "StartLine": 33,
    "EndLine": 33,
    "StartColumn": 31,
    "EndColumn": 49,
    "Match": "//security@ndaal.eu",
    "Secret": "//security@ndaal.eu",
    "File": "SECURITY.md",
    "SymlinkFile": "",
    "Commit": "c9dbaef41d098c694bbf56468bc2dbd61b5a8039",
    "Entropy": 3.826875,
    "Author": "Automator",
    "Email": "",
    "Date": "2023-08-29T06:34:09Z",
    "Message": "Automation: repo structure setup",
    "Tags": [],
    "RuleID": "email-address",
    "Fingerprint": "c9dbaef41d098c694bbf56468bc2dbd61b5a8039:SECURITY.md:email-address:33"
  },
  {
    "Description": "Email Address",
    "StartLine": 39,
    "EndLine": 39,
    "StartColumn": 6,
    "EndColumn": 23,
    "Match": "`security@ndaal.eu",
    "Secret": "`security@ndaal.eu",
    "File": "SECURITY.rst",
    "SymlinkFile": "",
    "Commit": "c9dbaef41d098c694bbf56468bc2dbd61b5a8039",
    "Entropy": 3.8365917,
    "Author": "Automator",
    "Email": "",
    "Date": "2023-08-29T06:34:09Z",
    "Message": "Automation: repo structure setup",
    "Tags": [],
    "RuleID": "email-address",
    "Fingerprint": "c9dbaef41d098c694bbf56468bc2dbd61b5a8039:SECURITY.rst:email-address:39"
  },
  {
    "Description": "Email Address",
    "StartLine": 39,
    "EndLine": 39,
    "StartColumn": 33,
    "EndColumn": 51,
    "Match": "//security@ndaal.eu",
    "Secret": "//security@ndaal.eu",
    "File": "SECURITY.rst",
    "SymlinkFile": "",
    "Commit": "c9dbaef41d098c694bbf56468bc2dbd61b5a8039",
    "Entropy": 3.826875,
    "Author": "Automator",
    "Email": "",
    "Date": "2023-08-29T06:34:09Z",
    "Message": "Automation: repo structure setup",
    "Tags": [],
    "RuleID": "email-address",
    "Fingerprint": "c9dbaef41d098c694bbf56468bc2dbd61b5a8039:SECURITY.rst:email-address:39"
  },
  {
    "Description": "IPv4 address",
    "StartLine": 82,
    "EndLine": 82,
    "StartColumn": 21,
    "EndColumn": 27,
    "Match": "1.6.2.1",
    "Secret": "1.6.2.1",
    "File": ".gitignore",
    "SymlinkFile": "",
    "Commit": "34392442d81054ea54901fadfbd765e21a3d7ada",
    "Entropy": 1.842371,
    "Author": "maintainer ndaal",
    "Email": "git_maint_ndaal@protonmail.com",
    "Date": "2023-08-29T08:33:54Z",
    "Message": "Merge after repo structure setup",
    "Tags": [],
    "RuleID": "ipv4",
    "Fingerprint": "34392442d81054ea54901fadfbd765e21a3d7ada:.gitignore:ipv4:82"
  },
  {
    "Description": "File names of credentials",
    "StartLine": 0,
    "EndLine": 0,
    "StartColumn": 0,
    "EndColumn": 0,
    "Match": "file detected: dataset/detect-secrets-test-data/config.env",
    "Secret": "",
    "File": "dataset/detect-secrets-test-data/config.env",
    "SymlinkFile": "",
    "Commit": "4c7775b298bf64657cc1cc956a72a0ee6250c5b4",
    "Entropy": 0,
    "Author": "André Breuer",
    "Email": "andre.breuer@ndaal.eu",
    "Date": "2023-08-23T06:51:20Z",
    "Message": "Add ignore rule for yamllint",
    "Tags": [],
    "RuleID": "common-credential-file",
    "Fingerprint": "4c7775b298bf64657cc1cc956a72a0ee6250c5b4:dataset/detect-secrets-test-data/config.env:common-credential-file:0"
  },
  {
    "Description": "Generic unquoted credential",
    "StartLine": 32,
    "EndLine": 32,
    "StartColumn": 2,
    "EndColumn": 79,
    "Match": "real_secret_which_isnt_an_i_d = vh987tyw9ehy8ghis7vwyhiwbwitefy7w3ASDGYDGUASDG",
    "Secret": "vh987tyw9ehy8ghis7vwyhiwbwitefy7w3ASDGYDGUASDG",
    "File": "dataset/detect-secrets-test-data/config.ini",
    "SymlinkFile": "",
    "Commit": "4c7775b298bf64657cc1cc956a72a0ee6250c5b4",
    "Entropy": 4.205536,
    "Author": "André Breuer",
    "Email": "andre.breuer@ndaal.eu",
    "Date": "2023-08-23T06:51:20Z",
    "Message": "Add ignore rule for yamllint",
    "Tags": [],
    "RuleID": "generic-credential-unquoted",
    "Fingerprint": "4c7775b298bf64657cc1cc956a72a0ee6250c5b4:dataset/detect-secrets-test-data/config.ini:generic-credential-unquoted:32"
  },
  {
    "Description": "Generic unquoted credential",
    "StartLine": 33,
    "EndLine": 33,
    "StartColumn": 2,
    "EndColumn": 64,
    "Match": "foreign_key_id = vh987tyw9ehy8ghis7vwyhiwbwitefy7w3ASDGYDGUASDG",
    "Secret": "vh987tyw9ehy8ghis7vwyhiwbwitefy7w3ASDGYDGUASDG",
    "File": "dataset/detect-secrets-test-data/config.ini",
    "SymlinkFile": "",
    "Commit": "4c7775b298bf64657cc1cc956a72a0ee6250c5b4",
    "Entropy": 4.205536,
    "Author": "André Breuer",
    "Email": "andre.breuer@ndaal.eu",
    "Date": "2023-08-23T06:51:20Z",
    "Message": "Add ignore rule for yamllint",
    "Tags": [],
    "RuleID": "generic-credential-unquoted",
    "Fingerprint": "4c7775b298bf64657cc1cc956a72a0ee6250c5b4:dataset/detect-secrets-test-data/config.ini:generic-credential-unquoted:33"
  },
  {
    "Description": "Generic API Key",
    "StartLine": 32,
    "EndLine": 33,
    "StartColumn": 7,
    "EndColumn": 1,
    "Match": "secret_which_isnt_an_i_d = vh987tyw9ehy8ghis7vwyhiwbwitefy7w3ASDGYDGUASDG",
    "Secret": "vh987tyw9ehy8ghis7vwyhiwbwitefy7w3ASDGYDGUASDG",
    "File": "dataset/detect-secrets-test-data/config.ini",
    "SymlinkFile": "",
    "Commit": "4c7775b298bf64657cc1cc956a72a0ee6250c5b4",
    "Entropy": 4.205536,
    "Author": "André Breuer",
    "Email": "andre.breuer@ndaal.eu",
    "Date": "2023-08-23T06:51:20Z",
    "Message": "Add ignore rule for yamllint",
    "Tags": [],
    "RuleID": "generic-api-key",
    "Fingerprint": "4c7775b298bf64657cc1cc956a72a0ee6250c5b4:dataset/detect-secrets-test-data/config.ini:generic-api-key:32"
  },
  {
    "Description": "Generic API Key",
    "StartLine": 33,
    "EndLine": 33,
    "StartColumn": 10,
    "EndColumn": 0,
    "Match": "key_id = vh987tyw9ehy8ghis7vwyhiwbwitefy7w3ASDGYDGUASDG",
    "Secret": "vh987tyw9ehy8ghis7vwyhiwbwitefy7w3ASDGYDGUASDG",
    "File": "dataset/detect-secrets-test-data/config.ini",
    "SymlinkFile": "",
    "Commit": "4c7775b298bf64657cc1cc956a72a0ee6250c5b4",
    "Entropy": 4.205536,
    "Author": "André Breuer",
    "Email": "andre.breuer@ndaal.eu",
    "Date": "2023-08-23T06:51:20Z",
    "Message": "Add ignore rule for yamllint",
    "Tags": [],
    "RuleID": "generic-api-key",
    "Fingerprint": "4c7775b298bf64657cc1cc956a72a0ee6250c5b4:dataset/detect-secrets-test-data/config.ini:generic-api-key:33"
  },
  {
    "Description": "ASP.NET Validation Key",
    "StartLine": 2,
    "EndLine": 2,
    "StartColumn": 13,
    "EndColumn": 16,
    "Match": "1234",
    "Secret": "1234",
    "File": "dataset/detect-secrets-test-data/config.ini",
    "SymlinkFile": "",
    "Commit": "4c7775b298bf64657cc1cc956a72a0ee6250c5b4",
    "Entropy": 2,
    "Author": "André Breuer",
    "Email": "andre.breuer@ndaal.eu",
    "Date": "2023-08-23T06:51:20Z",
    "Message": "Add ignore rule for yamllint",
    "Tags": [],
    "RuleID": "aspnet-validation-key-2110",
    "Fingerprint": "4c7775b298bf64657cc1cc956a72a0ee6250c5b4:dataset/detect-secrets-test-data/config.ini:aspnet-validation-key-2110:2"
  },
  {
    "Description": "ASP.NET Validation Key",
    "StartLine": 2,
    "EndLine": 2,
    "StartColumn": 23,
    "EndColumn": 26,
    "Match": "1234",
    "Secret": "1234",
    "File": "dataset/detect-secrets-test-data/config.ini",
    "SymlinkFile": "",
    "Commit": "4c7775b298bf64657cc1cc956a72a0ee6250c5b4",
    "Entropy": 2,
    "Author": "André Breuer",
    "Email": "andre.breuer@ndaal.eu",
    "Date": "2023-08-23T06:51:20Z",
    "Message": "Add ignore rule for yamllint",
    "Tags": [],
    "RuleID": "aspnet-validation-key-2110",
    "Fingerprint": "4c7775b298bf64657cc1cc956a72a0ee6250c5b4:dataset/detect-secrets-test-data/config.ini:aspnet-validation-key-2110:2"
  },
  {
    "Description": "ASP.NET Validation Key",
    "StartLine": 6,
    "EndLine": 6,
    "StartColumn": 17,
    "EndColumn": 20,
    "Match": "1234",
    "Secret": "1234",
    "File": "dataset/detect-secrets-test-data/config.ini",
    "SymlinkFile": "",
    "Commit": "4c7775b298bf64657cc1cc956a72a0ee6250c5b4",
    "Entropy": 2,
    "Author": "André Breuer",
    "Email": "andre.breuer@ndaal.eu",
    "Date": "2023-08-23T06:51:20Z",
    "Message": "Add ignore rule for yamllint",
    "Tags": [],
    "RuleID": "aspnet-validation-key-2110",
    "Fingerprint": "4c7775b298bf64657cc1cc956a72a0ee6250c5b4:dataset/detect-secrets-test-data/config.ini:aspnet-validation-key-2110:6"
  },
  {
    "Description": "ASP.NET Validation Key",
    "StartLine": 22,
    "EndLine": 22,
    "StartColumn": 11,
    "EndColumn": 14,
    "Match": "1234",
    "Secret": "1234",
    "File": "dataset/detect-secrets-test-data/config.ini",
    "SymlinkFile": "",
    "Commit": "4c7775b298bf64657cc1cc956a72a0ee6250c5b4",
    "Entropy": 2,
    "Author": "André Breuer",
    "Email": "andre.breuer@ndaal.eu",
    "Date": "2023-08-23T06:51:20Z",
    "Message": "Add ignore rule for yamllint",
    "Tags": [],
    "RuleID": "aspnet-validation-key-2110",
    "Fingerprint": "4c7775b298bf64657cc1cc956a72a0ee6250c5b4:dataset/detect-secrets-test-data/config.ini:aspnet-validation-key-2110:22"
  },
  {
    "Description": "Generic quoted credential",
    "StartLine": 10,
    "EndLine": 10,
    "StartColumn": 2,
    "EndColumn": 39,
    "Match": "key=\"ToCynx5Se4e2PtoZxEhW7lUJcOX15c54\"",
    "Secret": "ToCynx5Se4e2PtoZxEhW7lUJcOX15c54",
    "File": "dataset/detect-secrets-test-data/config.md",
    "SymlinkFile": "",
    "Commit": "4c7775b298bf64657cc1cc956a72a0ee6250c5b4",
    "Entropy": 4.53891,
    "Author": "André Breuer",
    "Email": "andre.breuer@ndaal.eu",
    "Date": "2023-08-23T06:51:20Z",
    "Message": "Add ignore rule for yamllint",
    "Tags": [],
    "RuleID": "generic-credential-quoted",
    "Fingerprint": "4c7775b298bf64657cc1cc956a72a0ee6250c5b4:dataset/detect-secrets-test-data/config.md:generic-credential-quoted:10"
  },
  {
    "Description": "Generic API Key",
    "StartLine": 10,
    "EndLine": 10,
    "StartColumn": 2,
    "EndColumn": 39,
    "Match": "key=\"ToCynx5Se4e2PtoZxEhW7lUJcOX15c54\"",
    "Secret": "ToCynx5Se4e2PtoZxEhW7lUJcOX15c54",
    "File": "dataset/detect-secrets-test-data/config.md",
    "SymlinkFile": "",
    "Commit": "4c7775b298bf64657cc1cc956a72a0ee6250c5b4",
    "Entropy": 4.53891,
    "Author": "André Breuer",
    "Email": "andre.breuer@ndaal.eu",
    "Date": "2023-08-23T06:51:20Z",
    "Message": "Add ignore rule for yamllint",
    "Tags": [],
    "RuleID": "generic-api-key",
    "Fingerprint": "4c7775b298bf64657cc1cc956a72a0ee6250c5b4:dataset/detect-secrets-test-data/config.md:generic-api-key:10"
  },
  {
    "Description": "ASP.NET Validation Key",
    "StartLine": 8,
    "EndLine": 8,
    "StartColumn": 31,
    "EndColumn": 34,
    "Match": "1234",
    "Secret": "1234",
    "File": "dataset/detect-secrets-test-data/config.md",
    "SymlinkFile": "",
    "Commit": "4c7775b298bf64657cc1cc956a72a0ee6250c5b4",
    "Entropy": 2,
    "Author": "André Breuer",
    "Email": "andre.breuer@ndaal.eu",
    "Date": "2023-08-23T06:51:20Z",
    "Message": "Add ignore rule for yamllint",
    "Tags": [],
    "RuleID": "aspnet-validation-key-2110",
    "Fingerprint": "4c7775b298bf64657cc1cc956a72a0ee6250c5b4:dataset/detect-secrets-test-data/config.md:aspnet-validation-key-2110:8"
  },
  {
    "Description": "ASP.NET Validation Key",
    "StartLine": 3,
    "EndLine": 3,
    "StartColumn": 24,
    "EndColumn": 27,
    "Match": "1234",
    "Secret": "1234",
    "File": "dataset/detect-secrets-test-data/config.yaml",
    "SymlinkFile": "",
    "Commit": "4c7775b298bf64657cc1cc956a72a0ee6250c5b4",
    "Entropy": 2,
    "Author": "André Breuer",
    "Email": "andre.breuer@ndaal.eu",
    "Date": "2023-08-23T06:51:20Z",
    "Message": "Add ignore rule for yamllint",
    "Tags": [],
    "RuleID": "aspnet-validation-key-2110",
    "Fingerprint": "4c7775b298bf64657cc1cc956a72a0ee6250c5b4:dataset/detect-secrets-test-data/config.yaml:aspnet-validation-key-2110:3"
  },
  {
    "Description": "ASP.NET Validation Key",
    "StartLine": 4,
    "EndLine": 4,
    "StartColumn": 45,
    "EndColumn": 48,
    "Match": "1234",
    "Secret": "1234",
    "File": "dataset/detect-secrets-test-data/config.yaml",
    "SymlinkFile": "",
    "Commit": "4c7775b298bf64657cc1cc956a72a0ee6250c5b4",
    "Entropy": 2,
    "Author": "André Breuer",
    "Email": "andre.breuer@ndaal.eu",
    "Date": "2023-08-23T06:51:20Z",
    "Message": "Add ignore rule for yamllint",
    "Tags": [],
    "RuleID": "aspnet-validation-key-2110",
    "Fingerprint": "4c7775b298bf64657cc1cc956a72a0ee6250c5b4:dataset/detect-secrets-test-data/config.yaml:aspnet-validation-key-2110:4"
  },
  {
    "Description": "Credentials inside of a URI",
    "StartLine": 7,
    "EndLine": 7,
    "StartColumn": 16,
    "EndColumn": 74,
    "Match": "http://username:whywouldyouusehttpforpasswords@example.com\"",
    "Secret": "whywouldyouusehttpforpasswords",
    "File": "dataset/detect-secrets-test-data/each_secret.py",
    "SymlinkFile": "",
    "Commit": "4c7775b298bf64657cc1cc956a72a0ee6250c5b4",
    "Entropy": 3.6565647,
    "Author": "André Breuer",
    "Email": "andre.breuer@ndaal.eu",
    "Date": "2023-08-23T06:51:20Z",
    "Message": "Add ignore rule for yamllint",
    "Tags": [],
    "RuleID": "uri-credentials",
    "Fingerprint": "4c7775b298bf64657cc1cc956a72a0ee6250c5b4:dataset/detect-secrets-test-data/each_secret.py:uri-credentials:7"
  },
  {
    "Description": "AWS Manager ID",
    "StartLine": 9,
    "EndLine": 9,
    "StartColumn": 20,
    "EndColumn": 39,
    "Match": "AKIAIOSFODNN7EXAMPLE",
    "Secret": "AKIAIOSFODNN7EXAMPLE",
    "File": "dataset/detect-secrets-test-data/each_secret.py",
    "SymlinkFile": "",
    "Commit": "4c7775b298bf64657cc1cc956a72a0ee6250c5b4",
    "Entropy": 3.6841838,
    "Author": "André Breuer",
    "Email": "andre.breuer@ndaal.eu",
    "Date": "2023-08-23T06:51:20Z",
    "Message": "Add ignore rule for yamllint",
    "Tags": [],
    "RuleID": "aws-manager-id",
    "Fingerprint": "4c7775b298bf64657cc1cc956a72a0ee6250c5b4:dataset/detect-secrets-test-data/each_secret.py:aws-manager-id:9"
  },
  {
    "Description": "AWS",
    "StartLine": 9,
    "EndLine": 9,
    "StartColumn": 20,
    "EndColumn": 39,
    "Match": "AKIAIOSFODNN7EXAMPLE",
    "Secret": "AKIAIOSFODNN7EXAMPLE",
    "File": "dataset/detect-secrets-test-data/each_secret.py",
    "SymlinkFile": "",
    "Commit": "4c7775b298bf64657cc1cc956a72a0ee6250c5b4",
    "Entropy": 3.6841838,
    "Author": "André Breuer",
    "Email": "andre.breuer@ndaal.eu",
    "Date": "2023-08-23T06:51:20Z",
    "Message": "Add ignore rule for yamllint",
    "Tags": [],
    "RuleID": "aws-access-token",
    "Fingerprint": "4c7775b298bf64657cc1cc956a72a0ee6250c5b4:dataset/detect-secrets-test-data/each_secret.py:aws-access-token:9"
  },
  {
    "Description": "AWS",
    "StartLine": 9,
    "EndLine": 9,
    "StartColumn": 20,
    "EndColumn": 39,
    "Match": "AKIAIOSFODNN7EXAMPLE",
    "Secret": "AKIAIOSFODNN7EXAMPLE",
    "File": "dataset/detect-secrets-test-data/each_secret.py",
    "SymlinkFile": "",
    "Commit": "4c7775b298bf64657cc1cc956a72a0ee6250c5b4",
    "Entropy": 3.6841838,
    "Author": "André Breuer",
    "Email": "andre.breuer@ndaal.eu",
    "Date": "2023-08-23T06:51:20Z",
    "Message": "Add ignore rule for yamllint",
    "Tags": [],
    "RuleID": "aws-access-token-2",
    "Fingerprint": "4c7775b298bf64657cc1cc956a72a0ee6250c5b4:dataset/detect-secrets-test-data/each_secret.py:aws-access-token-2:9"
  },
  {
    "Description": "SSH private key",
    "StartLine": 1,
    "EndLine": 1,
    "StartColumn": 1,
    "EndColumn": 35,
    "Match": "-----BEGIN OPENSSH PRIVATE KEY-----",
    "Secret": "-----BEGIN OPENSSH PRIVATE KEY-----",
    "File": "dataset/detect-secrets-test-data/files/private_key",
    "SymlinkFile": "",
    "Commit": "4c7775b298bf64657cc1cc956a72a0ee6250c5b4",
    "Entropy": 3.587164,
    "Author": "André Breuer",
    "Email": "andre.breuer@ndaal.eu",
    "Date": "2023-08-23T06:51:20Z",
    "Message": "Add ignore rule for yamllint",
    "Tags": [],
    "RuleID": "OPENSSH-PK",
    "Fingerprint": "4c7775b298bf64657cc1cc956a72a0ee6250c5b4:dataset/detect-secrets-test-data/files/private_key:OPENSSH-PK:1"
  },
  {
    "Description": "IPv4 address",
    "StartLine": 82,
    "EndLine": 82,
    "StartColumn": 21,
    "EndColumn": 27,
    "Match": "1.6.2.1",
    "Secret": "1.6.2.1",
    "File": ".gitignore",
    "SymlinkFile": "",
    "Commit": "c9dbaef41d098c694bbf56468bc2dbd61b5a8039",
    "Entropy": 1.842371,
    "Author": "Automator",
    "Email": "",
    "Date": "2023-08-29T06:34:09Z",
    "Message": "Automation: repo structure setup",
    "Tags": [],
    "RuleID": "ipv4",
    "Fingerprint": "c9dbaef41d098c694bbf56468bc2dbd61b5a8039:.gitignore:ipv4:82"
  },
  {
    "Description": "AWS Manager ID",
    "StartLine": 3,
    "EndLine": 3,
    "StartColumn": 15,
    "EndColumn": 34,
    "Match": "AKIAICKMZTVXEHBPKCYA",
    "Secret": "AKIAICKMZTVXEHBPKCYA",
    "File": "dataset/git-secret-test/test.txt",
    "SymlinkFile": "",
    "Commit": "4c7775b298bf64657cc1cc956a72a0ee6250c5b4",
    "Entropy": 3.6464393,
    "Author": "André Breuer",
    "Email": "andre.breuer@ndaal.eu",
    "Date": "2023-08-23T06:51:20Z",
    "Message": "Add ignore rule for yamllint",
    "Tags": [],
    "RuleID": "aws-manager-id",
    "Fingerprint": "4c7775b298bf64657cc1cc956a72a0ee6250c5b4:dataset/git-secret-test/test.txt:aws-manager-id:3"
  },
  {
    "Description": "Generic unquoted credential",
    "StartLine": 5,
    "EndLine": 5,
    "StartColumn": 9,
    "EndColumn": 54,
    "Match": "Key = jSaq0m8vZpuSLaRn42zydi/wcfkLiyuZM+XCL0oo",
    "Secret": "jSaq0m8vZpuSLaRn42zydi/wcfkLiyuZM+XCL0oo",
    "File": "dataset/git-secret-test/test.txt",
    "SymlinkFile": "",
    "Commit": "4c7775b298bf64657cc1cc956a72a0ee6250c5b4",
    "Entropy": 4.803056,
    "Author": "André Breuer",
    "Email": "andre.breuer@ndaal.eu",
    "Date": "2023-08-23T06:51:20Z",
    "Message": "Add ignore rule for yamllint",
    "Tags": [],
    "RuleID": "generic-credential-unquoted",
    "Fingerprint": "4c7775b298bf64657cc1cc956a72a0ee6250c5b4:dataset/git-secret-test/test.txt:generic-credential-unquoted:5"
  },
  {
    "Description": "AWS",
    "StartLine": 3,
    "EndLine": 3,
    "StartColumn": 15,
    "EndColumn": 34,
    "Match": "AKIAICKMZTVXEHBPKCYA",
    "Secret": "AKIAICKMZTVXEHBPKCYA",
    "File": "dataset/git-secret-test/test.txt",
    "SymlinkFile": "",
    "Commit": "4c7775b298bf64657cc1cc956a72a0ee6250c5b4",
    "Entropy": 3.6464393,
    "Author": "André Breuer",
    "Email": "andre.breuer@ndaal.eu",
    "Date": "2023-08-23T06:51:20Z",
    "Message": "Add ignore rule for yamllint",
    "Tags": [],
    "RuleID": "aws-access-token",
    "Fingerprint": "4c7775b298bf64657cc1cc956a72a0ee6250c5b4:dataset/git-secret-test/test.txt:aws-access-token:3"
  },
  {
    "Description": "AWS",
    "StartLine": 3,
    "EndLine": 3,
    "StartColumn": 15,
    "EndColumn": 34,
    "Match": "AKIAICKMZTVXEHBPKCYA",
    "Secret": "AKIAICKMZTVXEHBPKCYA",
    "File": "dataset/git-secret-test/test.txt",
    "SymlinkFile": "",
    "Commit": "4c7775b298bf64657cc1cc956a72a0ee6250c5b4",
    "Entropy": 3.6464393,
    "Author": "André Breuer",
    "Email": "andre.breuer@ndaal.eu",
    "Date": "2023-08-23T06:51:20Z",
    "Message": "Add ignore rule for yamllint",
    "Tags": [],
    "RuleID": "aws-access-token-2",
    "Fingerprint": "4c7775b298bf64657cc1cc956a72a0ee6250c5b4:dataset/git-secret-test/test.txt:aws-access-token-2:3"
  },
  {
    "Description": "Hardcoded secrets in bash script or setup",
    "StartLine": 11,
    "EndLine": 11,
    "StartColumn": 9,
    "EndColumn": 52,
    "Match": "AWS_ACCESS_KEY_ID=yLryKGwcGc3ez9G8YAnjeYMQOc",
    "Secret": "yLryKGwcGc3ez9G8YAnjeYMQOc",
    "File": "dataset/leaky-repo/.bash_profile",
    "SymlinkFile": "",
    "Commit": "4c7775b298bf64657cc1cc956a72a0ee6250c5b4",
    "Entropy": 4.10391,
    "Author": "André Breuer",
    "Email": "andre.breuer@ndaal.eu",
    "Date": "2023-08-23T06:51:20Z",
    "Message": "Add ignore rule for yamllint",
    "Tags": [],
    "RuleID": "bash-secrets",
    "Fingerprint": "4c7775b298bf64657cc1cc956a72a0ee6250c5b4:dataset/leaky-repo/.bash_profile:bash-secrets:11"
  },
  {
    "Description": "Hardcoded secrets in bash script or setup",
    "StartLine": 12,
    "EndLine": 12,
    "StartColumn": 9,
    "EndColumn": 68,
    "Match": "AWS_SECRET_ACCESS_KEY=nAH2VzKrMrRjySLlt8HCdFU3tM2TUuUZgh39NX",
    "Secret": "nAH2VzKrMrRjySLlt8HCdFU3tM2TUuUZgh39NX",
    "File": "dataset/leaky-repo/.bash_profile",
    "SymlinkFile": "",
    "Commit": "4c7775b298bf64657cc1cc956a72a0ee6250c5b4",
    "Entropy": 4.807009,
    "Author": "André Breuer",
    "Email": "andre.breuer@ndaal.eu",
    "Date": "2023-08-23T06:51:20Z",
    "Message": "Add ignore rule for yamllint",
    "Tags": [],
    "RuleID": "bash-secrets",
    "Fingerprint": "4c7775b298bf64657cc1cc956a72a0ee6250c5b4:dataset/leaky-repo/.bash_profile:bash-secrets:12"
  },
  {
    "Description": "Hardcoded secrets in bash script or setup",
    "StartLine": 21,
    "EndLine": 21,
    "StartColumn": 9,
    "EndColumn": 40,
    "Match": "HEROKU_API_KEY='sampleHerokuKey'",
    "Secret": "'sampleHerokuKey'",
    "File": "dataset/leaky-repo/.bash_profile",
    "SymlinkFile": "",
    "Commit": "4c7775b298bf64657cc1cc956a72a0ee6250c5b4",
    "Entropy": 3.6901164,
    "Author": "André Breuer",
    "Email": "andre.breuer@ndaal.eu",
    "Date": "2023-08-23T06:51:20Z",
    "Message": "Add ignore rule for yamllint",
    "Tags": [],
    "RuleID": "bash-secrets",
    "Fingerprint": "4c7775b298bf64657cc1cc956a72a0ee6250c5b4:dataset/leaky-repo/.bash_profile:bash-secrets:21"
  },
  {
    "Description": "Hardcoded secrets in bash script or setup",
    "StartLine": 22,
    "EndLine": 22,
    "StartColumn": 9,
    "EndColumn": 76,
    "Match": "HOMEBREW_GITHUB_API_TOKEN='51e61afee2c2667123fc9ed160a0a20b330c8f74'",
    "Secret": "'51e61afee2c2667123fc9ed160a0a20b330c8f74'",
    "File": "dataset/leaky-repo/.bash_profile",
    "SymlinkFile": "",
    "Commit": "4c7775b298bf64657cc1cc956a72a0ee6250c5b4",
    "Entropy": 3.891852,
    "Author": "André Breuer",
    "Email": "andre.breuer@ndaal.eu",
    "Date": "2023-08-23T06:51:20Z",
    "Message": "Add ignore rule for yamllint",
    "Tags": [],
    "RuleID": "bash-secrets",
    "Fingerprint": "4c7775b298bf64657cc1cc956a72a0ee6250c5b4:dataset/leaky-repo/.bash_profile:bash-secrets:22"
  },
  {
    "Description": "Hardcoded secrets in bash script or setup",
    "StartLine": 23,
    "EndLine": 23,
    "StartColumn": 9,
    "EndColumn": 102,
    "Match": "SLACK_API_TOKEN='xoxp-858723095049-581481478633-908968721956-f16b85d1f73ef37c02323bf3fd537ea5'",
    "Secret": "'xoxp-858723095049-581481478633-908968721956-f16b85d1f73ef37c02323bf3fd537ea5'",
    "File": "dataset/leaky-repo/.bash_profile",
    "SymlinkFile": "",
    "Commit": "4c7775b298bf64657cc1cc956a72a0ee6250c5b4",
    "Entropy": 4.1152177,
    "Author": "André Breuer",
    "Email": "andre.breuer@ndaal.eu",
    "Date": "2023-08-23T06:51:20Z",
    "Message": "Add ignore rule for yamllint",
    "Tags": [],
    "RuleID": "bash-secrets",
    "Fingerprint": "4c7775b298bf64657cc1cc956a72a0ee6250c5b4:dataset/leaky-repo/.bash_profile:bash-secrets:23"
  },
  {
    "Description": "AWS cred file info",
    "StartLine": 11,
    "EndLine": 11,
    "StartColumn": 2,
    "EndColumn": 52,
    "Match": "export AWS_ACCESS_KEY_ID=yLryKGwcGc3ez9G8YAnjeYMQOc",
    "Secret": "yLryKGwcGc3ez9G8YAnjeYMQOc",
    "File": "dataset/leaky-repo/.bash_profile",
    "SymlinkFile": "",
    "Commit": "4c7775b298bf64657cc1cc956a72a0ee6250c5b4",
    "Entropy": 4.10391,
    "Author": "André Breuer",
    "Email": "andre.breuer@ndaal.eu",
    "Date": "2023-08-23T06:51:20Z",
    "Message": "Add ignore rule for yamllint",
    "Tags": [],
    "RuleID": "aws-cred-file",
    "Fingerprint": "4c7775b298bf64657cc1cc956a72a0ee6250c5b4:dataset/leaky-repo/.bash_profile:aws-cred-file:11"
  },
  {
    "Description": "AWS cred file info",
    "StartLine": 12,
    "EndLine": 12,
    "StartColumn": 2,
    "EndColumn": 68,
    "Match": "export AWS_SECRET_ACCESS_KEY=nAH2VzKrMrRjySLlt8HCdFU3tM2TUuUZgh39NX",
    "Secret": "nAH2VzKrMrRjySLlt8HCdFU3tM2TUuUZgh39NX",
    "File": "dataset/leaky-repo/.bash_profile",
    "SymlinkFile": "",
    "Commit": "4c7775b298bf64657cc1cc956a72a0ee6250c5b4",
    "Entropy": 4.807009,
    "Author": "André Breuer",
    "Email": "andre.breuer@ndaal.eu",
    "Date": "2023-08-23T06:51:20Z",
    "Message": "Add ignore rule for yamllint",
    "Tags": [],
    "RuleID": "aws-cred-file",
    "Fingerprint": "4c7775b298bf64657cc1cc956a72a0ee6250c5b4:dataset/leaky-repo/.bash_profile:aws-cred-file:12"
  },
  {
    "Description": "Github",
    "StartLine": 22,
    "EndLine": 22,
    "StartColumn": 2,
    "EndColumn": 76,
    "Match": "export HOMEBREW_GITHUB_API_TOKEN='51e61afee2c2667123fc9ed160a0a20b330c8f74'",
    "Secret": "51e61afee2c2667123fc9ed160a0a20b330c8f74",
    "File": "dataset/leaky-repo/.bash_profile",
    "SymlinkFile": "",
    "Commit": "4c7775b298bf64657cc1cc956a72a0ee6250c5b4",
    "Entropy": 3.7964394,
    "Author": "André Breuer",
    "Email": "andre.breuer@ndaal.eu",
    "Date": "2023-08-23T06:51:20Z",
    "Message": "Add ignore rule for yamllint",
    "Tags": [],
    "RuleID": "github-key",
    "Fingerprint": "4c7775b298bf64657cc1cc956a72a0ee6250c5b4:dataset/leaky-repo/.bash_profile:github-key:22"
  },
  {
    "Description": "Slack token",
    "StartLine": 23,
    "EndLine": 23,
    "StartColumn": 26,
    "EndColumn": 42,
    "Match": "xoxp-858723095049",
    "Secret": "xoxp-858723095049",
    "File": "dataset/leaky-repo/.bash_profile",
    "SymlinkFile": "",
    "Commit": "4c7775b298bf64657cc1cc956a72a0ee6250c5b4",
    "Entropy": 3.4992275,
    "Author": "André Breuer",
    "Email": "andre.breuer@ndaal.eu",
    "Date": "2023-08-23T06:51:20Z",
    "Message": "Add ignore rule for yamllint",
    "Tags": [],
    "RuleID": "slack-access-token",
    "Fingerprint": "4c7775b298bf64657cc1cc956a72a0ee6250c5b4:dataset/leaky-repo/.bash_profile:slack-access-token:23"
  },
  {
    "Description": "Secrets in JSON files",
    "StartLine": 72,
    "EndLine": 72,
    "StartColumn": 11,
    "EndColumn": 69,
    "Match": "\"hashed_secret\": \"a2480a72004fc40d124495fd59f5b482034fbadd\"",
    "Secret": "a2480a72004fc40d124495fd59f5b482034fbadd",
    "File": "dataset/detect-secrets-test-data/sample.diff",
    "SymlinkFile": "",
    "Commit": "4c7775b298bf64657cc1cc956a72a0ee6250c5b4",
    "Entropy": 3.5526557,
    "Author": "André Breuer",
    "Email": "andre.breuer@ndaal.eu",
    "Date": "2023-08-23T06:51:20Z",
    "Message": "Add ignore rule for yamllint",
    "Tags": [],
    "RuleID": "json-secrets",
    "Fingerprint": "4c7775b298bf64657cc1cc956a72a0ee6250c5b4:dataset/detect-secrets-test-data/sample.diff:json-secrets:72"
  },
  {
    "Description": "Generic API Key",
    "StartLine": 4,
    "EndLine": 4,
    "StartColumn": 7,
    "EndColumn": 125,
    "Match": "auth\": \"X3Rva2VuOjEyMzQuMThqZjg0MWZrbDQwYU90dTNrLXdCbDVuaThDM2Q0QVh0QjM2V2VqZzM4MDA2WlR5TDhUOWg5VXgrWWwzdTNVQ1hDWFZlWg\"",
    "Secret": "X3Rva2VuOjEyMzQuMThqZjg0MWZrbDQwYU90dTNrLXdCbDVuaThDM2Q0QVh0QjM2V2VqZzM4MDA2WlR5TDhUOWg5VXgrWWwzdTNVQ1hDWFZlWg",
    "File": "dataset/leaky-repo/.docker/.dockercfg",
    "SymlinkFile": "",
    "Commit": "4c7775b298bf64657cc1cc956a72a0ee6250c5b4",
    "Entropy": 4.98743,
    "Author": "André Breuer",
    "Email": "andre.breuer@ndaal.eu",
    "Date": "2023-08-23T06:51:20Z",
    "Message": "Add ignore rule for yamllint",
    "Tags": [],
    "RuleID": "generic-api-key",
    "Fingerprint": "4c7775b298bf64657cc1cc956a72a0ee6250c5b4:dataset/leaky-repo/.docker/.dockercfg:generic-api-key:4"
  },
  {
    "Description": "Generic API Key",
    "StartLine": 8,
    "EndLine": 8,
    "StartColumn": 7,
    "EndColumn": 125,
    "Match": "auth\": \"X3Rva2VuOjEyMzQuMThqZjg0MWZrbDQwYU90dTNrLXdCbDVuaThDM2Q0QVh0QjM2V2VqZzM4MDA2WlR5TDhUOWg5VXgrWWwzdTNVQ1hDWFZlWg\"",
    "Secret": "X3Rva2VuOjEyMzQuMThqZjg0MWZrbDQwYU90dTNrLXdCbDVuaThDM2Q0QVh0QjM2V2VqZzM4MDA2WlR5TDhUOWg5VXgrWWwzdTNVQ1hDWFZlWg",
    "File": "dataset/leaky-repo/.docker/.dockercfg",
    "SymlinkFile": "",
    "Commit": "4c7775b298bf64657cc1cc956a72a0ee6250c5b4",
    "Entropy": 4.98743,
    "Author": "André Breuer",
    "Email": "andre.breuer@ndaal.eu",
    "Date": "2023-08-23T06:51:20Z",
    "Message": "Add ignore rule for yamllint",
    "Tags": [],
    "RuleID": "generic-api-key",
    "Fingerprint": "4c7775b298bf64657cc1cc956a72a0ee6250c5b4:dataset/leaky-repo/.docker/.dockercfg:generic-api-key:8"
  },
  {
    "Description": "Email Address",
    "StartLine": 3,
    "EndLine": 3,
    "StartColumn": 16,
    "EndColumn": 33,
    "Match": "docker@example.com",
    "Secret": "docker@example.com",
    "File": "dataset/leaky-repo/.docker/.dockercfg",
    "SymlinkFile": "",
    "Commit": "4c7775b298bf64657cc1cc956a72a0ee6250c5b4",
    "Entropy": 3.5724313,
    "Author": "André Breuer",
    "Email": "andre.breuer@ndaal.eu",
    "Date": "2023-08-23T06:51:20Z",
    "Message": "Add ignore rule for yamllint",
    "Tags": [],
    "RuleID": "email-address",
    "Fingerprint": "4c7775b298bf64657cc1cc956a72a0ee6250c5b4:dataset/leaky-repo/.docker/.dockercfg:email-address:3"
  },
  {
    "Description": "Email Address",
    "StartLine": 7,
    "EndLine": 7,
    "StartColumn": 16,
    "EndColumn": 33,
    "Match": "docker@example.com",
    "Secret": "docker@example.com",
    "File": "dataset/leaky-repo/.docker/.dockercfg",
    "SymlinkFile": "",
    "Commit": "4c7775b298bf64657cc1cc956a72a0ee6250c5b4",
    "Entropy": 3.5724313,
    "Author": "André Breuer",
    "Email": "andre.breuer@ndaal.eu",
    "Date": "2023-08-23T06:51:20Z",
    "Message": "Add ignore rule for yamllint",
    "Tags": [],
    "RuleID": "email-address",
    "Fingerprint": "4c7775b298bf64657cc1cc956a72a0ee6250c5b4:dataset/leaky-repo/.docker/.dockercfg:email-address:7"
  },
  {
    "Description": "Generic API Key",
    "StartLine": 5,
    "EndLine": 5,
    "StartColumn": 15,
    "EndColumn": 133,
    "Match": "auth\": \"X3Rva2VuOjEyMzQuMThqZjg0MWZrbDQwYU90dTNrLXdCbDVuaThDM2Q0QVh0QjM2V2VqZzM4MDA2WlR5TDhUOWg5VXgrWWwzdTNVQ1hDWFZlWg\"",
    "Secret": "X3Rva2VuOjEyMzQuMThqZjg0MWZrbDQwYU90dTNrLXdCbDVuaThDM2Q0QVh0QjM2V2VqZzM4MDA2WlR5TDhUOWg5VXgrWWwzdTNVQ1hDWFZlWg",
    "File": "dataset/leaky-repo/.docker/config.json",
    "SymlinkFile": "",
    "Commit": "4c7775b298bf64657cc1cc956a72a0ee6250c5b4",
    "Entropy": 4.98743,
    "Author": "André Breuer",
    "Email": "andre.breuer@ndaal.eu",
    "Date": "2023-08-23T06:51:20Z",
    "Message": "Add ignore rule for yamllint",
    "Tags": [],
    "RuleID": "generic-api-key",
    "Fingerprint": "4c7775b298bf64657cc1cc956a72a0ee6250c5b4:dataset/leaky-repo/.docker/config.json:generic-api-key:5"
  },
  {
    "Description": "Generic API Key",
    "StartLine": 9,
    "EndLine": 9,
    "StartColumn": 15,
    "EndColumn": 133,
    "Match": "auth\": \"X3Rva2VuOjEyMzQuMThqZjg0MWZrbDQwYU90dTNrLXdCbDVuaThDM2Q0QVh0QjM2V2VqZzM4MDA2WlR5TDhUOWg5VXgrWWwzdTNVQ1hDWFZlWg\"",
    "Secret": "X3Rva2VuOjEyMzQuMThqZjg0MWZrbDQwYU90dTNrLXdCbDVuaThDM2Q0QVh0QjM2V2VqZzM4MDA2WlR5TDhUOWg5VXgrWWwzdTNVQ1hDWFZlWg",
    "File": "dataset/leaky-repo/.docker/config.json",
    "SymlinkFile": "",
    "Commit": "4c7775b298bf64657cc1cc956a72a0ee6250c5b4",
    "Entropy": 4.98743,
    "Author": "André Breuer",
    "Email": "andre.breuer@ndaal.eu",
    "Date": "2023-08-23T06:51:20Z",
    "Message": "Add ignore rule for yamllint",
    "Tags": [],
    "RuleID": "generic-api-key",
    "Fingerprint": "4c7775b298bf64657cc1cc956a72a0ee6250c5b4:dataset/leaky-repo/.docker/config.json:generic-api-key:9"
  },
  {
    "Description": "Email Address",
    "StartLine": 4,
    "EndLine": 4,
    "StartColumn": 24,
    "EndColumn": 41,
    "Match": "docker@example.com",
    "Secret": "docker@example.com",
    "File": "dataset/leaky-repo/.docker/config.json",
    "SymlinkFile": "",
    "Commit": "4c7775b298bf64657cc1cc956a72a0ee6250c5b4",
    "Entropy": 3.5724313,
    "Author": "André Breuer",
    "Email": "andre.breuer@ndaal.eu",
    "Date": "2023-08-23T06:51:20Z",
    "Message": "Add ignore rule for yamllint",
    "Tags": [],
    "RuleID": "email-address",
    "Fingerprint": "4c7775b298bf64657cc1cc956a72a0ee6250c5b4:dataset/leaky-repo/.docker/config.json:email-address:4"
  },
  {
    "Description": "Email Address",
    "StartLine": 8,
    "EndLine": 8,
    "StartColumn": 24,
    "EndColumn": 41,
    "Match": "docker@example.com",
    "Secret": "docker@example.com",
    "File": "dataset/leaky-repo/.docker/config.json",
    "SymlinkFile": "",
    "Commit": "4c7775b298bf64657cc1cc956a72a0ee6250c5b4",
    "Entropy": 3.5724313,
    "Author": "André Breuer",
    "Email": "andre.breuer@ndaal.eu",
    "Date": "2023-08-23T06:51:20Z",
    "Message": "Add ignore rule for yamllint",
    "Tags": [],
    "RuleID": "email-address",
    "Fingerprint": "4c7775b298bf64657cc1cc956a72a0ee6250c5b4:dataset/leaky-repo/.docker/config.json:email-address:8"
  },
  {
    "Description": "File names of credentials",
    "StartLine": 0,
    "EndLine": 0,
    "StartColumn": 0,
    "EndColumn": 0,
    "Match": "file detected: dataset/leaky-repo/.git-credentials",
    "Secret": "",
    "File": "dataset/leaky-repo/.git-credentials",
    "SymlinkFile": "",
    "Commit": "4c7775b298bf64657cc1cc956a72a0ee6250c5b4",
    "Entropy": 0,
    "Author": "André Breuer",
    "Email": "andre.breuer@ndaal.eu",
    "Date": "2023-08-23T06:51:20Z",
    "Message": "Add ignore rule for yamllint",
    "Tags": [],
    "RuleID": "common-credential-file",
    "Fingerprint": "4c7775b298bf64657cc1cc956a72a0ee6250c5b4:dataset/leaky-repo/.git-credentials:common-credential-file:0"
  },
  {
    "Description": "Secrets in JSON files",
    "StartLine": 64,
    "EndLine": 64,
    "StartColumn": 10,
    "EndColumn": 68,
    "Match": "\"hashed_secret\": \"513e0a36963ae1e8431c041b744679ee578b7c44\"",
    "Secret": "513e0a36963ae1e8431c041b744679ee578b7c44",
    "File": "dataset/detect-secrets-test-data/baseline.file",
    "SymlinkFile": "",
    "Commit": "4c7775b298bf64657cc1cc956a72a0ee6250c5b4",
    "Entropy": 3.5750706,
    "Author": "André Breuer",
    "Email": "andre.breuer@ndaal.eu",
    "Date": "2023-08-23T06:51:20Z",
    "Message": "Add ignore rule for yamllint",
    "Tags": [],
    "RuleID": "json-secrets",
    "Fingerprint": "4c7775b298bf64657cc1cc956a72a0ee6250c5b4:dataset/detect-secrets-test-data/baseline.file:json-secrets:64"
  },
  {
    "Description": "Secrets in JSON files",
    "StartLine": 72,
    "EndLine": 72,
    "StartColumn": 10,
    "EndColumn": 68,
    "Match": "\"hashed_secret\": \"b5198bd9fe6726cf064a5b80b6dfe25ab793147f\"",
    "Secret": "b5198bd9fe6726cf064a5b80b6dfe25ab793147f",
    "File": "dataset/detect-secrets-test-data/baseline.file",
    "SymlinkFile": "",
    "Commit": "4c7775b298bf64657cc1cc956a72a0ee6250c5b4",
    "Entropy": 3.8750706,
    "Author": "André Breuer",
    "Email": "andre.breuer@ndaal.eu",
    "Date": "2023-08-23T06:51:20Z",
    "Message": "Add ignore rule for yamllint",
    "Tags": [],
    "RuleID": "json-secrets",
    "Fingerprint": "4c7775b298bf64657cc1cc956a72a0ee6250c5b4:dataset/detect-secrets-test-data/baseline.file:json-secrets:72"
  },
  {
    "Description": "Secrets in JSON files",
    "StartLine": 78,
    "EndLine": 78,
    "StartColumn": 10,
    "EndColumn": 68,
    "Match": "\"hashed_secret\": \"b5198bd9fe6726cf064a5b80b6dfe25ab793147f\"",
    "Secret": "b5198bd9fe6726cf064a5b80b6dfe25ab793147f",
    "File": "dataset/detect-secrets-test-data/baseline.file",
    "SymlinkFile": "",
    "Commit": "4c7775b298bf64657cc1cc956a72a0ee6250c5b4",
    "Entropy": 3.8750706,
    "Author": "André Breuer",
    "Email": "andre.breuer@ndaal.eu",
    "Date": "2023-08-23T06:51:20Z",
    "Message": "Add ignore rule for yamllint",
    "Tags": [],
    "RuleID": "json-secrets",
    "Fingerprint": "4c7775b298bf64657cc1cc956a72a0ee6250c5b4:dataset/detect-secrets-test-data/baseline.file:json-secrets:78"
  },
  {
    "Description": "Secrets in JSON files",
    "StartLine": 84,
    "EndLine": 84,
    "StartColumn": 10,
    "EndColumn": 68,
    "Match": "\"hashed_secret\": \"b1c6a9a65d292f95c2bb3bc1918eed10f4dabb16\"",
    "Secret": "b1c6a9a65d292f95c2bb3bc1918eed10f4dabb16",
    "File": "dataset/detect-secrets-test-data/baseline.file",
    "SymlinkFile": "",
    "Commit": "4c7775b298bf64657cc1cc956a72a0ee6250c5b4",
    "Entropy": 3.6995819,
    "Author": "André Breuer",
    "Email": "andre.breuer@ndaal.eu",
    "Date": "2023-08-23T06:51:20Z",
    "Message": "Add ignore rule for yamllint",
    "Tags": [],
    "RuleID": "json-secrets",
    "Fingerprint": "4c7775b298bf64657cc1cc956a72a0ee6250c5b4:dataset/detect-secrets-test-data/baseline.file:json-secrets:84"
  },
  {
    "Description": "Secrets in JSON files",
    "StartLine": 92,
    "EndLine": 92,
    "StartColumn": 10,
    "EndColumn": 68,
    "Match": "\"hashed_secret\": \"5343820d9546b186452efc24a0776244057f4b19\"",
    "Secret": "5343820d9546b186452efc24a0776244057f4b19",
    "File": "dataset/detect-secrets-test-data/baseline.file",
    "SymlinkFile": "",
    "Commit": "4c7775b298bf64657cc1cc956a72a0ee6250c5b4",
    "Entropy": 3.7740245,
    "Author": "André Breuer",
    "Email": "andre.breuer@ndaal.eu",
    "Date": "2023-08-23T06:51:20Z",
    "Message": "Add ignore rule for yamllint",
    "Tags": [],
    "RuleID": "json-secrets",
    "Fingerprint": "4c7775b298bf64657cc1cc956a72a0ee6250c5b4:dataset/detect-secrets-test-data/baseline.file:json-secrets:92"
  },
  {
    "Description": "Secrets in JSON files",
    "StartLine": 100,
    "EndLine": 100,
    "StartColumn": 10,
    "EndColumn": 68,
    "Match": "\"hashed_secret\": \"5cbabd43e49a1fedbbc3b86311aa6c8fe446abf9\"",
    "Secret": "5cbabd43e49a1fedbbc3b86311aa6c8fe446abf9",
    "File": "dataset/detect-secrets-test-data/baseline.file",
    "SymlinkFile": "",
    "Commit": "4c7775b298bf64657cc1cc956a72a0ee6250c5b4",
    "Entropy": 3.5807097,
    "Author": "André Breuer",
    "Email": "andre.breuer@ndaal.eu",
    "Date": "2023-08-23T06:51:20Z",
    "Message": "Add ignore rule for yamllint",
    "Tags": [],
    "RuleID": "json-secrets",
    "Fingerprint": "4c7775b298bf64657cc1cc956a72a0ee6250c5b4:dataset/detect-secrets-test-data/baseline.file:json-secrets:100"
  },
  {
    "Description": "Secrets in JSON files",
    "StartLine": 106,
    "EndLine": 106,
    "StartColumn": 10,
    "EndColumn": 68,
    "Match": "\"hashed_secret\": \"9080e79e67d92bd09c8a498a380190cdb4595072\"",
    "Secret": "9080e79e67d92bd09c8a498a380190cdb4595072",
    "File": "dataset/detect-secrets-test-data/baseline.file",
    "SymlinkFile": "",
    "Commit": "4c7775b298bf64657cc1cc956a72a0ee6250c5b4",
    "Entropy": 3.6551523,
    "Author": "André Breuer",
    "Email": "andre.breuer@ndaal.eu",
    "Date": "2023-08-23T06:51:20Z",
    "Message": "Add ignore rule for yamllint",
    "Tags": [],
    "RuleID": "json-secrets",
    "Fingerprint": "4c7775b298bf64657cc1cc956a72a0ee6250c5b4:dataset/detect-secrets-test-data/baseline.file:json-secrets:106"
  },
  {
    "Description": "Secrets in JSON files",
    "StartLine": 112,
    "EndLine": 112,
    "StartColumn": 10,
    "EndColumn": 68,
    "Match": "\"hashed_secret\": \"10ab7ab9856ae2aa93fcfeba71e99511dd55f70c\"",
    "Secret": "10ab7ab9856ae2aa93fcfeba71e99511dd55f70c",
    "File": "dataset/detect-secrets-test-data/baseline.file",
    "SymlinkFile": "",
    "Commit": "4c7775b298bf64657cc1cc956a72a0ee6250c5b4",
    "Entropy": 3.708695,
    "Author": "André Breuer",
    "Email": "andre.breuer@ndaal.eu",
    "Date": "2023-08-23T06:51:20Z",
    "Message": "Add ignore rule for yamllint",
    "Tags": [],
    "RuleID": "json-secrets",
    "Fingerprint": "4c7775b298bf64657cc1cc956a72a0ee6250c5b4:dataset/detect-secrets-test-data/baseline.file:json-secrets:112"
  },
  {
    "Description": "Secrets in JSON files",
    "StartLine": 118,
    "EndLine": 118,
    "StartColumn": 10,
    "EndColumn": 68,
    "Match": "\"hashed_secret\": \"9e882e61ddaf94553323e1933403d6058ba26a6d\"",
    "Secret": "9e882e61ddaf94553323e1933403d6058ba26a6d",
    "File": "dataset/detect-secrets-test-data/baseline.file",
    "SymlinkFile": "",
    "Commit": "4c7775b298bf64657cc1cc956a72a0ee6250c5b4",
    "Entropy": 3.6709507,
    "Author": "André Breuer",
    "Email": "andre.breuer@ndaal.eu",
    "Date": "2023-08-23T06:51:20Z",
    "Message": "Add ignore rule for yamllint",
    "Tags": [],
    "RuleID": "json-secrets",
    "Fingerprint": "4c7775b298bf64657cc1cc956a72a0ee6250c5b4:dataset/detect-secrets-test-data/baseline.file:json-secrets:118"
  },
  {
    "Description": "Secrets in JSON files",
    "StartLine": 126,
    "EndLine": 126,
    "StartColumn": 10,
    "EndColumn": 68,
    "Match": "\"hashed_secret\": \"9e882e61ddaf94553323e1933403d6058ba26a6d\"",
    "Secret": "9e882e61ddaf94553323e1933403d6058ba26a6d",
    "File": "dataset/detect-secrets-test-data/baseline.file",
    "SymlinkFile": "",
    "Commit": "4c7775b298bf64657cc1cc956a72a0ee6250c5b4",
    "Entropy": 3.6709507,
    "Author": "André Breuer",
    "Email": "andre.breuer@ndaal.eu",
    "Date": "2023-08-23T06:51:20Z",
    "Message": "Add ignore rule for yamllint",
    "Tags": [],
    "RuleID": "json-secrets",
    "Fingerprint": "4c7775b298bf64657cc1cc956a72a0ee6250c5b4:dataset/detect-secrets-test-data/baseline.file:json-secrets:126"
  },
  {
    "Description": "Secrets in JSON files",
    "StartLine": 132,
    "EndLine": 132,
    "StartColumn": 10,
    "EndColumn": 68,
    "Match": "\"hashed_secret\": \"e278763134b893ff03b8c776d7f20d8be1a5612c\"",
    "Secret": "e278763134b893ff03b8c776d7f20d8be1a5612c",
    "File": "dataset/detect-secrets-test-data/baseline.file",
    "SymlinkFile": "",
    "Commit": "4c7775b298bf64657cc1cc956a72a0ee6250c5b4",
    "Entropy": 3.837326,
    "Author": "André Breuer",
    "Email": "andre.breuer@ndaal.eu",
    "Date": "2023-08-23T06:51:20Z",
    "Message": "Add ignore rule for yamllint",
    "Tags": [],
    "RuleID": "json-secrets",
    "Fingerprint": "4c7775b298bf64657cc1cc956a72a0ee6250c5b4:dataset/detect-secrets-test-data/baseline.file:json-secrets:132"
  },
  {
    "Description": "Secrets in JSON files",
    "StartLine": 140,
    "EndLine": 140,
    "StartColumn": 10,
    "EndColumn": 68,
    "Match": "\"hashed_secret\": \"1bc97f6cb10c85b8c7d78c0cd21c39e3500f42d1\"",
    "Secret": "1bc97f6cb10c85b8c7d78c0cd21c39e3500f42d1",
    "File": "dataset/detect-secrets-test-data/baseline.file",
    "SymlinkFile": "",
    "Commit": "4c7775b298bf64657cc1cc956a72a0ee6250c5b4",
    "Entropy": 3.7051523,
    "Author": "André Breuer",
    "Email": "andre.breuer@ndaal.eu",
    "Date": "2023-08-23T06:51:20Z",
    "Message": "Add ignore rule for yamllint",
    "Tags": [],
    "RuleID": "json-secrets",
    "Fingerprint": "4c7775b298bf64657cc1cc956a72a0ee6250c5b4:dataset/detect-secrets-test-data/baseline.file:json-secrets:140"
  },
  {
    "Description": "Secrets in JSON files",
    "StartLine": 146,
    "EndLine": 146,
    "StartColumn": 10,
    "EndColumn": 68,
    "Match": "\"hashed_secret\": \"1ca6beea06a87d5f77fa8e4523d0dc1f0965e2ce\"",
    "Secret": "1ca6beea06a87d5f77fa8e4523d0dc1f0965e2ce",
    "File": "dataset/detect-secrets-test-data/baseline.file",
    "SymlinkFile": "",
    "Commit": "4c7775b298bf64657cc1cc956a72a0ee6250c5b4",
    "Entropy": 3.8495817,
    "Author": "André Breuer",
    "Email": "andre.breuer@ndaal.eu",
    "Date": "2023-08-23T06:51:20Z",
    "Message": "Add ignore rule for yamllint",
    "Tags": [],
    "RuleID": "json-secrets",
    "Fingerprint": "4c7775b298bf64657cc1cc956a72a0ee6250c5b4:dataset/detect-secrets-test-data/baseline.file:json-secrets:146"
  },
  {
    "Description": "Secrets in JSON files",
    "StartLine": 164,
    "EndLine": 164,
    "StartColumn": 10,
    "EndColumn": 68,
    "Match": "\"hashed_secret\": \"99b5e14eaf6b7cd863796dab48ae736be2ac6b53\"",
    "Secret": "99b5e14eaf6b7cd863796dab48ae736be2ac6b53",
    "File": "dataset/detect-secrets-test-data/baseline.file",
    "SymlinkFile": "",
    "Commit": "4c7775b298bf64657cc1cc956a72a0ee6250c5b4",
    "Entropy": 3.7348294,
    "Author": "André Breuer",
    "Email": "andre.breuer@ndaal.eu",
    "Date": "2023-08-23T06:51:20Z",
    "Message": "Add ignore rule for yamllint",
    "Tags": [],
    "RuleID": "json-secrets",
    "Fingerprint": "4c7775b298bf64657cc1cc956a72a0ee6250c5b4:dataset/detect-secrets-test-data/baseline.file:json-secrets:164"
  },
  {
    "Description": "Secrets in JSON files",
    "StartLine": 170,
    "EndLine": 170,
    "StartColumn": 10,
    "EndColumn": 68,
    "Match": "\"hashed_secret\": \"abc87b1a41afc12fccfb148d8a632f76d2251767\"",
    "Secret": "abc87b1a41afc12fccfb148d8a632f76d2251767",
    "File": "dataset/detect-secrets-test-data/baseline.file",
    "SymlinkFile": "",
    "Commit": "4c7775b298bf64657cc1cc956a72a0ee6250c5b4",
    "Entropy": 3.5750706,
    "Author": "André Breuer",
    "Email": "andre.breuer@ndaal.eu",
    "Date": "2023-08-23T06:51:20Z",
    "Message": "Add ignore rule for yamllint",
    "Tags": [],
    "RuleID": "json-secrets",
    "Fingerprint": "4c7775b298bf64657cc1cc956a72a0ee6250c5b4:dataset/detect-secrets-test-data/baseline.file:json-secrets:170"
  },
  {
    "Description": "Secrets in JSON files",
    "StartLine": 176,
    "EndLine": 176,
    "StartColumn": 10,
    "EndColumn": 68,
    "Match": "\"hashed_secret\": \"d70eab08607a4d05faa2d0d6647206599e9abc65\"",
    "Secret": "d70eab08607a4d05faa2d0d6647206599e9abc65",
    "File": "dataset/detect-secrets-test-data/baseline.file",
    "SymlinkFile": "",
    "Commit": "4c7775b298bf64657cc1cc956a72a0ee6250c5b4",
    "Entropy": 3.5970852,
    "Author": "André Breuer",
    "Email": "andre.breuer@ndaal.eu",
    "Date": "2023-08-23T06:51:20Z",
    "Message": "Add ignore rule for yamllint",
    "Tags": [],
    "RuleID": "json-secrets",
    "Fingerprint": "4c7775b298bf64657cc1cc956a72a0ee6250c5b4:dataset/detect-secrets-test-data/baseline.file:json-secrets:176"
  },
  {
    "Description": "Secrets in JSON files",
    "StartLine": 184,
    "EndLine": 184,
    "StartColumn": 10,
    "EndColumn": 68,
    "Match": "\"hashed_secret\": \"262547656a76a8a5d24ad428e7010e0fbb8d0413\"",
    "Secret": "262547656a76a8a5d24ad428e7010e0fbb8d0413",
    "File": "dataset/detect-secrets-test-data/baseline.file",
    "SymlinkFile": "",
    "Commit": "4c7775b298bf64657cc1cc956a72a0ee6250c5b4",
    "Entropy": 3.6964393,
    "Author": "André Breuer",
    "Email": "andre.breuer@ndaal.eu",
    "Date": "2023-08-23T06:51:20Z",
    "Message": "Add ignore rule for yamllint",
    "Tags": [],
    "RuleID": "json-secrets",
    "Fingerprint": "4c7775b298bf64657cc1cc956a72a0ee6250c5b4:dataset/detect-secrets-test-data/baseline.file:json-secrets:184"
  },
  {
    "Description": "Secrets in JSON files",
    "StartLine": 200,
    "EndLine": 200,
    "StartColumn": 10,
    "EndColumn": 68,
    "Match": "\"hashed_secret\": \"88aa1a600b44f0b5cacad4d6300f64afe6d6e9df\"",
    "Secret": "88aa1a600b44f0b5cacad4d6300f64afe6d6e9df",
    "File": "dataset/detect-secrets-test-data/baseline.file",
    "SymlinkFile": "",
    "Commit": "4c7775b298bf64657cc1cc956a72a0ee6250c5b4",
    "Entropy": 3.5537016,
    "Author": "André Breuer",
    "Email": "andre.breuer@ndaal.eu",
    "Date": "2023-08-23T06:51:20Z",
    "Message": "Add ignore rule for yamllint",
    "Tags": [],
    "RuleID": "json-secrets",
    "Fingerprint": "4c7775b298bf64657cc1cc956a72a0ee6250c5b4:dataset/detect-secrets-test-data/baseline.file:json-secrets:200"
  },
  {
    "Description": "Secrets in JSON files",
    "StartLine": 206,
    "EndLine": 206,
    "StartColumn": 10,
    "EndColumn": 68,
    "Match": "\"hashed_secret\": \"eb33f663e25e69fad07fe0338935b4954b5027d2\"",
    "Secret": "eb33f663e25e69fad07fe0338935b4954b5027d2",
    "File": "dataset/detect-secrets-test-data/baseline.file",
    "SymlinkFile": "",
    "Commit": "4c7775b298bf64657cc1cc956a72a0ee6250c5b4",
    "Entropy": 3.6709507,
    "Author": "André Breuer",
    "Email": "andre.breuer@ndaal.eu",
    "Date": "2023-08-23T06:51:20Z",
    "Message": "Add ignore rule for yamllint",
    "Tags": [],
    "RuleID": "json-secrets",
    "Fingerprint": "4c7775b298bf64657cc1cc956a72a0ee6250c5b4:dataset/detect-secrets-test-data/baseline.file:json-secrets:206"
  },
  {
    "Description": "Secrets in JSON files",
    "StartLine": 214,
    "EndLine": 214,
    "StartColumn": 10,
    "EndColumn": 68,
    "Match": "\"hashed_secret\": \"e2a1cb4d8da934cee6027f5fe14993b9c81158a4\"",
    "Secret": "e2a1cb4d8da934cee6027f5fe14993b9c81158a4",
    "File": "dataset/detect-secrets-test-data/baseline.file",
    "SymlinkFile": "",
    "Commit": "4c7775b298bf64657cc1cc956a72a0ee6250c5b4",
    "Entropy": 3.8653116,
    "Author": "André Breuer",
    "Email": "andre.breuer@ndaal.eu",
    "Date": "2023-08-23T06:51:20Z",
    "Message": "Add ignore rule for yamllint",
    "Tags": [],
    "RuleID": "json-secrets",
    "Fingerprint": "4c7775b298bf64657cc1cc956a72a0ee6250c5b4:dataset/detect-secrets-test-data/baseline.file:json-secrets:214"
  },
  {
    "Description": "Secrets in JSON files",
    "StartLine": 220,
    "EndLine": 220,
    "StartColumn": 10,
    "EndColumn": 68,
    "Match": "\"hashed_secret\": \"a539bed96675daafa460631f5a076d9afd70ea9c\"",
    "Secret": "a539bed96675daafa460631f5a076d9afd70ea9c",
    "File": "dataset/detect-secrets-test-data/baseline.file",
    "SymlinkFile": "",
    "Commit": "4c7775b298bf64657cc1cc956a72a0ee6250c5b4",
    "Entropy": 3.5649111,
    "Author": "André Breuer",
    "Email": "andre.breuer@ndaal.eu",
    "Date": "2023-08-23T06:51:20Z",
    "Message": "Add ignore rule for yamllint",
    "Tags": [],
    "RuleID": "json-secrets",
    "Fingerprint": "4c7775b298bf64657cc1cc956a72a0ee6250c5b4:dataset/detect-secrets-test-data/baseline.file:json-secrets:220"
  },
  {
    "Description": "Secrets in JSON files",
    "StartLine": 226,
    "EndLine": 226,
    "StartColumn": 10,
    "EndColumn": 68,
    "Match": "\"hashed_secret\": \"b5ce0843584425c0b608d91cb07a50d634282d5d\"",
    "Secret": "b5ce0843584425c0b608d91cb07a50d634282d5d",
    "File": "dataset/detect-secrets-test-data/baseline.file",
    "SymlinkFile": "",
    "Commit": "4c7775b298bf64657cc1cc956a72a0ee6250c5b4",
    "Entropy": 3.6848295,
    "Author": "André Breuer",
    "Email": "andre.breuer@ndaal.eu",
    "Date": "2023-08-23T06:51:20Z",
    "Message": "Add ignore rule for yamllint",
    "Tags": [],
    "RuleID": "json-secrets",
    "Fingerprint": "4c7775b298bf64657cc1cc956a72a0ee6250c5b4:dataset/detect-secrets-test-data/baseline.file:json-secrets:226"
  },
  {
    "Description": "Secrets in JSON files",
    "StartLine": 232,
    "EndLine": 232,
    "StartColumn": 10,
    "EndColumn": 68,
    "Match": "\"hashed_secret\": \"b5ce0843584425c0b608d91cb07a50d634282d5d\"",
    "Secret": "b5ce0843584425c0b608d91cb07a50d634282d5d",
    "File": "dataset/detect-secrets-test-data/baseline.file",
    "SymlinkFile": "",
    "Commit": "4c7775b298bf64657cc1cc956a72a0ee6250c5b4",
    "Entropy": 3.6848295,
    "Author": "André Breuer",
    "Email": "andre.breuer@ndaal.eu",
    "Date": "2023-08-23T06:51:20Z",
    "Message": "Add ignore rule for yamllint",
    "Tags": [],
    "RuleID": "json-secrets",
    "Fingerprint": "4c7775b298bf64657cc1cc956a72a0ee6250c5b4:dataset/detect-secrets-test-data/baseline.file:json-secrets:232"
  },
  {
    "Description": "Secrets in JSON files",
    "StartLine": 240,
    "EndLine": 240,
    "StartColumn": 10,
    "EndColumn": 68,
    "Match": "\"hashed_secret\": \"27537b9a43d6490772281a06c014ec283325f2f3\"",
    "Secret": "27537b9a43d6490772281a06c014ec283325f2f3",
    "File": "dataset/detect-secrets-test-data/baseline.file",
    "SymlinkFile": "",
    "Commit": "4c7775b298bf64657cc1cc956a72a0ee6250c5b4",
    "Entropy": 3.8061984,
    "Author": "André Breuer",
    "Email": "andre.breuer@ndaal.eu",
    "Date": "2023-08-23T06:51:20Z",
    "Message": "Add ignore rule for yamllint",
    "Tags": [],
    "RuleID": "json-secrets",
    "Fingerprint": "4c7775b298bf64657cc1cc956a72a0ee6250c5b4:dataset/detect-secrets-test-data/baseline.file:json-secrets:240"
  },
  {
    "Description": "Secrets in JSON files",
    "StartLine": 248,
    "EndLine": 248,
    "StartColumn": 10,
    "EndColumn": 68,
    "Match": "\"hashed_secret\": \"0de9a11b3f37872868ca49ecd726c955e25b6e21\"",
    "Secret": "0de9a11b3f37872868ca49ecd726c955e25b6e21",
    "File": "dataset/detect-secrets-test-data/baseline.file",
    "SymlinkFile": "",
    "Commit": "4c7775b298bf64657cc1cc956a72a0ee6250c5b4",
    "Entropy": 3.8898227,
    "Author": "André Breuer",
    "Email": "andre.breuer@ndaal.eu",
    "Date": "2023-08-23T06:51:20Z",
    "Message": "Add ignore rule for yamllint",
    "Tags": [],
    "RuleID": "json-secrets",
    "Fingerprint": "4c7775b298bf64657cc1cc956a72a0ee6250c5b4:dataset/detect-secrets-test-data/baseline.file:json-secrets:248"
  },
  {
    "Description": "Secrets in JSON files",
    "StartLine": 256,
    "EndLine": 256,
    "StartColumn": 10,
    "EndColumn": 68,
    "Match": "\"hashed_secret\": \"66e02bb499b2a3f5f2894ce1b7959962c1a5a245\"",
    "Secret": "66e02bb499b2a3f5f2894ce1b7959962c1a5a245",
    "File": "dataset/detect-secrets-test-data/baseline.file",
    "SymlinkFile": "",
    "Commit": "4c7775b298bf64657cc1cc956a72a0ee6250c5b4",
    "Entropy": 3.6873262,
    "Author": "André Breuer",
    "Email": "andre.breuer@ndaal.eu",
    "Date": "2023-08-23T06:51:20Z",
    "Message": "Add ignore rule for yamllint",
    "Tags": [],
    "RuleID": "json-secrets",
    "Fingerprint": "4c7775b298bf64657cc1cc956a72a0ee6250c5b4:dataset/detect-secrets-test-data/baseline.file:json-secrets:256"
  },
  {
    "Description": "Email Address",
    "StartLine": 5,
    "EndLine": 5,
    "StartColumn": 2,
    "EndColumn": 24,
    "Match": "email=dummy@example.com",
    "Secret": "email=dummy@example.com",
    "File": "dataset/leaky-repo/.npmrc",
    "SymlinkFile": "",
    "Commit": "4c7775b298bf64657cc1cc956a72a0ee6250c5b4",
    "Entropy": 3.6381476,
    "Author": "André Breuer",
    "Email": "andre.breuer@ndaal.eu",
    "Date": "2023-08-23T06:51:20Z",
    "Message": "Add ignore rule for yamllint",
    "Tags": [],
    "RuleID": "email-address",
    "Fingerprint": "4c7775b298bf64657cc1cc956a72a0ee6250c5b4:dataset/leaky-repo/.npmrc:email-address:5"
  },
  {
    "Description": "RSA private key",
    "StartLine": 1,
    "EndLine": 1,
    "StartColumn": 1,
    "EndColumn": 31,
    "Match": "-----BEGIN RSA PRIVATE KEY-----",
    "Secret": "-----BEGIN RSA PRIVATE KEY-----",
    "File": "dataset/leaky-repo/.ssh/id_rsa",
    "SymlinkFile": "",
    "Commit": "4c7775b298bf64657cc1cc956a72a0ee6250c5b4",
    "Entropy": 3.3822913,
    "Author": "André Breuer",
    "Email": "andre.breuer@ndaal.eu",
    "Date": "2023-08-23T06:51:20Z",
    "Message": "Add ignore rule for yamllint",
    "Tags": [],
    "RuleID": "RSA-PK",
    "Fingerprint": "4c7775b298bf64657cc1cc956a72a0ee6250c5b4:dataset/leaky-repo/.ssh/id_rsa:RSA-PK:1"
  },
  {
    "Description": "File names of credentials",
    "StartLine": 0,
    "EndLine": 0,
    "StartColumn": 0,
    "EndColumn": 0,
    "Match": "file detected: dataset/leaky-repo/.ssh/id_rsa",
    "Secret": "",
    "File": "dataset/leaky-repo/.ssh/id_rsa",
    "SymlinkFile": "",
    "Commit": "4c7775b298bf64657cc1cc956a72a0ee6250c5b4",
    "Entropy": 0,
    "Author": "André Breuer",
    "Email": "andre.breuer@ndaal.eu",
    "Date": "2023-08-23T06:51:20Z",
    "Message": "Add ignore rule for yamllint",
    "Tags": [],
    "RuleID": "common-credential-file",
    "Fingerprint": "4c7775b298bf64657cc1cc956a72a0ee6250c5b4:dataset/leaky-repo/.ssh/id_rsa:common-credential-file:0"
  },
  {
    "Description": "MailChimp API key",
    "StartLine": 106,
    "EndLine": 106,
    "StartColumn": 2,
    "EndColumn": 65,
    "Match": "export MAILCHIMP_API_KEY=\"38c47f19e349153fa963bb3b3212fe8e-us11\"",
    "Secret": "38c47f19e349153fa963bb3b3212fe8e-us11",
    "File": "dataset/leaky-repo/.bashrc",
    "SymlinkFile": "",
    "Commit": "4c7775b298bf64657cc1cc956a72a0ee6250c5b4",
    "Entropy": 3.8002923,
    "Author": "André Breuer",
    "Email": "andre.breuer@ndaal.eu",
    "Date": "2023-08-23T06:51:20Z",
    "Message": "Add ignore rule for yamllint",
    "Tags": [],
    "RuleID": "mailchimp-api-key-2",
    "Fingerprint": "4c7775b298bf64657cc1cc956a72a0ee6250c5b4:dataset/leaky-repo/.bashrc:mailchimp-api-key-2:106"
  },
  {
    "Description": "Email Address",
    "StartLine": 104,
    "EndLine": 104,
    "StartColumn": 25,
    "EndColumn": 41,
    "Match": "example@gmail.com",
    "Secret": "example@gmail.com",
    "File": "dataset/leaky-repo/.bashrc",
    "SymlinkFile": "",
    "Commit": "4c7775b298bf64657cc1cc956a72a0ee6250c5b4",
    "Entropy": 3.4548223,
    "Author": "André Breuer",
    "Email": "andre.breuer@ndaal.eu",
    "Date": "2023-08-23T06:51:20Z",
    "Message": "Add ignore rule for yamllint",
    "Tags": [],
    "RuleID": "email-address",
    "Fingerprint": "4c7775b298bf64657cc1cc956a72a0ee6250c5b4:dataset/leaky-repo/.bashrc:email-address:104"
  },
  {
    "Description": "Email Address",
    "StartLine": 108,
    "EndLine": 108,
    "StartColumn": 22,
    "EndColumn": 38,
    "Match": "example@gmail.com",
    "Secret": "example@gmail.com",
    "File": "dataset/leaky-repo/.bashrc",
    "SymlinkFile": "",
    "Commit": "4c7775b298bf64657cc1cc956a72a0ee6250c5b4",
    "Entropy": 3.4548223,
    "Author": "André Breuer",
    "Email": "andre.breuer@ndaal.eu",
    "Date": "2023-08-23T06:51:20Z",
    "Message": "Add ignore rule for yamllint",
    "Tags": [],
    "RuleID": "email-address",
    "Fingerprint": "4c7775b298bf64657cc1cc956a72a0ee6250c5b4:dataset/leaky-repo/.bashrc:email-address:108"
  },
  {
    "Description": "Hardcoded secrets in bash script or setup",
    "StartLine": 106,
    "EndLine": 106,
    "StartColumn": 9,
    "EndColumn": 65,
    "Match": "MAILCHIMP_API_KEY=\"38c47f19e349153fa963bb3b3212fe8e-us11\"",
    "Secret": "\"38c47f19e349153fa963bb3b3212fe8e-us11\"",
    "File": "dataset/leaky-repo/.bashrc",
    "SymlinkFile": "",
    "Commit": "4c7775b298bf64657cc1cc956a72a0ee6250c5b4",
    "Entropy": 3.8972237,
    "Author": "André Breuer",
    "Email": "andre.breuer@ndaal.eu",
    "Date": "2023-08-23T06:51:20Z",
    "Message": "Add ignore rule for yamllint",
    "Tags": [],
    "RuleID": "bash-secrets",
    "Fingerprint": "4c7775b298bf64657cc1cc956a72a0ee6250c5b4:dataset/leaky-repo/.bashrc:bash-secrets:106"
  },
  {
    "Description": "Hardcoded secrets in bash script or setup",
    "StartLine": 109,
    "EndLine": 109,
    "StartColumn": 9,
    "EndColumn": 70,
    "Match": "JEKYLL_GITHUB_TOKEN=\"c77e01c1e89682e4d4b94a059a7fd2b37ab326ed\"",
    "Secret": "\"c77e01c1e89682e4d4b94a059a7fd2b37ab326ed\"",
    "File": "dataset/leaky-repo/.bashrc",
    "SymlinkFile": "",
    "Commit": "4c7775b298bf64657cc1cc956a72a0ee6250c5b4",
    "Entropy": 3.9987621,
    "Author": "André Breuer",
    "Email": "andre.breuer@ndaal.eu",
    "Date": "2023-08-23T06:51:20Z",
    "Message": "Add ignore rule for yamllint",
    "Tags": [],
    "RuleID": "bash-secrets",
    "Fingerprint": "4c7775b298bf64657cc1cc956a72a0ee6250c5b4:dataset/leaky-repo/.bashrc:bash-secrets:109"
  },
  {
    "Description": "Github",
    "StartLine": 109,
    "EndLine": 109,
    "StartColumn": 2,
    "EndColumn": 70,
    "Match": "export JEKYLL_GITHUB_TOKEN=\"c77e01c1e89682e4d4b94a059a7fd2b37ab326ed\"",
    "Secret": "c77e01c1e89682e4d4b94a059a7fd2b37ab326ed",
    "File": "dataset/leaky-repo/.bashrc",
    "SymlinkFile": "",
    "Commit": "4c7775b298bf64657cc1cc956a72a0ee6250c5b4",
    "Entropy": 3.908695,
    "Author": "André Breuer",
    "Email": "andre.breuer@ndaal.eu",
    "Date": "2023-08-23T06:51:20Z",
    "Message": "Add ignore rule for yamllint",
    "Tags": [],
    "RuleID": "github-key",
    "Fingerprint": "4c7775b298bf64657cc1cc956a72a0ee6250c5b4:dataset/leaky-repo/.bashrc:github-key:109"
  },
  {
    "Description": "ASP.NET Validation Key",
    "StartLine": 105,
    "EndLine": 105,
    "StartColumn": 30,
    "EndColumn": 33,
    "Match": "1234",
    "Secret": "1234",
    "File": "dataset/leaky-repo/.bashrc",
    "SymlinkFile": "",
    "Commit": "4c7775b298bf64657cc1cc956a72a0ee6250c5b4",
    "Entropy": 2,
    "Author": "André Breuer",
    "Email": "andre.breuer@ndaal.eu",
    "Date": "2023-08-23T06:51:20Z",
    "Message": "Add ignore rule for yamllint",
    "Tags": [],
    "RuleID": "aspnet-validation-key-2110",
    "Fingerprint": "4c7775b298bf64657cc1cc956a72a0ee6250c5b4:dataset/leaky-repo/.bashrc:aspnet-validation-key-2110:105"
  },
  {
    "Description": "AWS cred file info",
    "StartLine": 3,
    "EndLine": 3,
    "StartColumn": 2,
    "EndColumn": 47,
    "Match": "aws_access_key_id = yLryKGwcGc3ez9G8YAnjeYMQOc",
    "Secret": " yLryKGwcGc3ez9G8YAnjeYMQOc",
    "File": "dataset/leaky-repo/cloud/.credentials",
    "SymlinkFile": "",
    "Commit": "4c7775b298bf64657cc1cc956a72a0ee6250c5b4",
    "Entropy": 4.1804514,
    "Author": "André Breuer",
    "Email": "andre.breuer@ndaal.eu",
    "Date": "2023-08-23T06:51:20Z",
    "Message": "Add ignore rule for yamllint",
    "Tags": [],
    "RuleID": "aws-cred-file",
    "Fingerprint": "4c7775b298bf64657cc1cc956a72a0ee6250c5b4:dataset/leaky-repo/cloud/.credentials:aws-cred-file:3"
  },
  {
    "Description": "AWS cred file info",
    "StartLine": 4,
    "EndLine": 4,
    "StartColumn": 2,
    "EndColumn": 63,
    "Match": "aws_secret_access_key = nAH2VzKrMrRjySLlt8HCdFU3tM2TUuUZgh39NX",
    "Secret": " nAH2VzKrMrRjySLlt8HCdFU3tM2TUuUZgh39NX",
    "File": "dataset/leaky-repo/cloud/.credentials",
    "SymlinkFile": "",
    "Commit": "4c7775b298bf64657cc1cc956a72a0ee6250c5b4",
    "Entropy": 4.8557897,
    "Author": "André Breuer",
    "Email": "andre.breuer@ndaal.eu",
    "Date": "2023-08-23T06:51:20Z",
    "Message": "Add ignore rule for yamllint",
    "Tags": [],
    "RuleID": "aws-cred-file",
    "Fingerprint": "4c7775b298bf64657cc1cc956a72a0ee6250c5b4:dataset/leaky-repo/cloud/.credentials:aws-cred-file:4"
  },
  {
    "Description": "AWS cred file info",
    "StartLine": 6,
    "EndLine": 6,
    "StartColumn": 2,
    "EndColumn": 47,
    "Match": "aws_access_key_id = yLryKGwcGc3ez9G8YAnjeYMQOc",
    "Secret": " yLryKGwcGc3ez9G8YAnjeYMQOc",
    "File": "dataset/leaky-repo/cloud/.credentials",
    "SymlinkFile": "",
    "Commit": "4c7775b298bf64657cc1cc956a72a0ee6250c5b4",
    "Entropy": 4.1804514,
    "Author": "André Breuer",
    "Email": "andre.breuer@ndaal.eu",
    "Date": "2023-08-23T06:51:20Z",
    "Message": "Add ignore rule for yamllint",
    "Tags": [],
    "RuleID": "aws-cred-file",
    "Fingerprint": "4c7775b298bf64657cc1cc956a72a0ee6250c5b4:dataset/leaky-repo/cloud/.credentials:aws-cred-file:6"
  },
  {
    "Description": "AWS cred file info",
    "StartLine": 7,
    "EndLine": 7,
    "StartColumn": 2,
    "EndColumn": 63,
    "Match": "aws_secret_access_key = nAH2VzKrMrRjySLlt8HCdFU3tM2TUuUZgh39NX",
    "Secret": " nAH2VzKrMrRjySLlt8HCdFU3tM2TUuUZgh39NX",
    "File": "dataset/leaky-repo/cloud/.credentials",
    "SymlinkFile": "",
    "Commit": "4c7775b298bf64657cc1cc956a72a0ee6250c5b4",
    "Entropy": 4.8557897,
    "Author": "André Breuer",
    "Email": "andre.breuer@ndaal.eu",
    "Date": "2023-08-23T06:51:20Z",
    "Message": "Add ignore rule for yamllint",
    "Tags": [],
    "RuleID": "aws-cred-file",
    "Fingerprint": "4c7775b298bf64657cc1cc956a72a0ee6250c5b4:dataset/leaky-repo/cloud/.credentials:aws-cred-file:7"
  },
  {
    "Description": "Generic unquoted credential",
    "StartLine": 1,
    "EndLine": 1,
    "StartColumn": 1,
    "EndColumn": 39,
    "Match": "secret_key = yLryKGwcGc3ez9G8YAnjeYMQOc",
    "Secret": "yLryKGwcGc3ez9G8YAnjeYMQOc",
    "File": "dataset/leaky-repo/cloud/.s3cfg",
    "SymlinkFile": "",
    "Commit": "4c7775b298bf64657cc1cc956a72a0ee6250c5b4",
    "Entropy": 4.10391,
    "Author": "André Breuer",
    "Email": "andre.breuer@ndaal.eu",
    "Date": "2023-08-23T06:51:20Z",
    "Message": "Add ignore rule for yamllint",
    "Tags": [],
    "RuleID": "generic-credential-unquoted",
    "Fingerprint": "4c7775b298bf64657cc1cc956a72a0ee6250c5b4:dataset/leaky-repo/cloud/.s3cfg:generic-credential-unquoted:1"
  },
  {
    "Description": "Generic unquoted credential",
    "StartLine": 2,
    "EndLine": 2,
    "StartColumn": 2,
    "EndColumn": 52,
    "Match": "access_key = nAH2VzKrMrRjySLlt8HCdFU3tM2TUuUZgh39NX",
    "Secret": "nAH2VzKrMrRjySLlt8HCdFU3tM2TUuUZgh39NX",
    "File": "dataset/leaky-repo/cloud/.s3cfg",
    "SymlinkFile": "",
    "Commit": "4c7775b298bf64657cc1cc956a72a0ee6250c5b4",
    "Entropy": 4.807009,
    "Author": "André Breuer",
    "Email": "andre.breuer@ndaal.eu",
    "Date": "2023-08-23T06:51:20Z",
    "Message": "Add ignore rule for yamllint",
    "Tags": [],
    "RuleID": "generic-credential-unquoted",
    "Fingerprint": "4c7775b298bf64657cc1cc956a72a0ee6250c5b4:dataset/leaky-repo/cloud/.s3cfg:generic-credential-unquoted:2"
  },
  {
    "Description": "File names of credentials",
    "StartLine": 0,
    "EndLine": 0,
    "StartColumn": 0,
    "EndColumn": 0,
    "Match": "file detected: dataset/leaky-repo/cloud/.s3cfg",
    "Secret": "",
    "File": "dataset/leaky-repo/cloud/.s3cfg",
    "SymlinkFile": "",
    "Commit": "4c7775b298bf64657cc1cc956a72a0ee6250c5b4",
    "Entropy": 0,
    "Author": "André Breuer",
    "Email": "andre.breuer@ndaal.eu",
    "Date": "2023-08-23T06:51:20Z",
    "Message": "Add ignore rule for yamllint",
    "Tags": [],
    "RuleID": "common-credential-file",
    "Fingerprint": "4c7775b298bf64657cc1cc956a72a0ee6250c5b4:dataset/leaky-repo/cloud/.s3cfg:common-credential-file:0"
  },
  {
    "Description": "Generic API Key",
    "StartLine": 2,
    "EndLine": 2,
    "StartColumn": 2,
    "EndColumn": 53,
    "Match": "access_key = nAH2VzKrMrRjySLlt8HCdFU3tM2TUuUZgh39NX ",
    "Secret": "nAH2VzKrMrRjySLlt8HCdFU3tM2TUuUZgh39NX",
    "File": "dataset/leaky-repo/cloud/.s3cfg",
    "SymlinkFile": "",
    "Commit": "4c7775b298bf64657cc1cc956a72a0ee6250c5b4",
    "Entropy": 4.807009,
    "Author": "André Breuer",
    "Email": "andre.breuer@ndaal.eu",
    "Date": "2023-08-23T06:51:20Z",
    "Message": "Add ignore rule for yamllint",
    "Tags": [],
    "RuleID": "generic-api-key",
    "Fingerprint": "4c7775b298bf64657cc1cc956a72a0ee6250c5b4:dataset/leaky-repo/cloud/.s3cfg:generic-api-key:2"
  },
  {
    "Description": "Email Address",
    "StartLine": 3,
    "EndLine": 3,
    "StartColumn": 25,
    "EndColumn": 42,
    "Match": "heroku@example.com",
    "Secret": "heroku@example.com",
    "File": "dataset/leaky-repo/cloud/heroku.json",
    "SymlinkFile": "",
    "Commit": "4c7775b298bf64657cc1cc956a72a0ee6250c5b4",
    "Entropy": 3.6835423,
    "Author": "André Breuer",
    "Email": "andre.breuer@ndaal.eu",
    "Date": "2023-08-23T06:51:20Z",
    "Message": "Add ignore rule for yamllint",
    "Tags": [],
    "RuleID": "email-address",
    "Fingerprint": "4c7775b298bf64657cc1cc956a72a0ee6250c5b4:dataset/leaky-repo/cloud/heroku.json:email-address:3"
  },
  {
    "Description": "Generic quoted credential",
    "StartLine": 4,
    "EndLine": 4,
    "StartColumn": 8,
    "EndColumn": 59,
    "Match": "\"HEROKU_API_KEY\": \"7a2f9a4289e530bef6dbf31f4cbf63d5\"",
    "Secret": "7a2f9a4289e530bef6dbf31f4cbf63d5",
    "File": "dataset/leaky-repo/cloud/heroku.json",
    "SymlinkFile": "",
    "Commit": "4c7775b298bf64657cc1cc956a72a0ee6250c5b4",
    "Entropy": 3.8400183,
    "Author": "André Breuer",
    "Email": "andre.breuer@ndaal.eu",
    "Date": "2023-08-23T06:51:20Z",
    "Message": "Add ignore rule for yamllint",
    "Tags": [],
    "RuleID": "generic-credential-quoted",
    "Fingerprint": "4c7775b298bf64657cc1cc956a72a0ee6250c5b4:dataset/leaky-repo/cloud/heroku.json:generic-credential-quoted:4"
  },
  {
    "Description": "File names of credentials",
    "StartLine": 0,
    "EndLine": 0,
    "StartColumn": 0,
    "EndColumn": 0,
    "Match": "file detected: dataset/leaky-repo/db/.pgpass",
    "Secret": "",
    "File": "dataset/leaky-repo/db/.pgpass",
    "SymlinkFile": "",
    "Commit": "4c7775b298bf64657cc1cc956a72a0ee6250c5b4",
    "Entropy": 0,
    "Author": "André Breuer",
    "Email": "andre.breuer@ndaal.eu",
    "Date": "2023-08-23T06:51:20Z",
    "Message": "Add ignore rule for yamllint",
    "Tags": [],
    "RuleID": "common-credential-file",
    "Fingerprint": "4c7775b298bf64657cc1cc956a72a0ee6250c5b4:dataset/leaky-repo/db/.pgpass:common-credential-file:0"
  },
  {
    "Description": "File names of credentials",
    "StartLine": 0,
    "EndLine": 0,
    "StartColumn": 0,
    "EndColumn": 0,
    "Match": "file detected: dataset/leaky-repo/etc/shadow",
    "Secret": "",
    "File": "dataset/leaky-repo/etc/shadow",
    "SymlinkFile": "",
    "Commit": "4c7775b298bf64657cc1cc956a72a0ee6250c5b4",
    "Entropy": 0,
    "Author": "André Breuer",
    "Email": "andre.breuer@ndaal.eu",
    "Date": "2023-08-23T06:51:20Z",
    "Message": "Add ignore rule for yamllint",
    "Tags": [],
    "RuleID": "common-credential-file",
    "Fingerprint": "4c7775b298bf64657cc1cc956a72a0ee6250c5b4:dataset/leaky-repo/etc/shadow:common-credential-file:0"
  },
  {
    "Description": "IPv4 address",
    "StartLine": 82,
    "EndLine": 82,
    "StartColumn": 21,
    "EndColumn": 27,
    "Match": "1.6.2.1",
    "Secret": "1.6.2.1",
    "File": ".gitignore",
    "SymlinkFile": "",
    "Commit": "4c7775b298bf64657cc1cc956a72a0ee6250c5b4",
    "Entropy": 1.842371,
    "Author": "André Breuer",
    "Email": "andre.breuer@ndaal.eu",
    "Date": "2023-08-23T06:51:20Z",
    "Message": "Add ignore rule for yamllint",
    "Tags": [],
    "RuleID": "ipv4",
    "Fingerprint": "4c7775b298bf64657cc1cc956a72a0ee6250c5b4:.gitignore:ipv4:82"
  },
  {
    "Description": "Encrypted passwords in Linux files",
    "StartLine": 32,
    "EndLine": 32,
    "StartColumn": 18,
    "EndColumn": 79,
    "Match": "'$2y$12$s.YfVZdfvAuO/Iz6fte5iO..ZbbEgreZnDcYOGvX4NGJskYQIstcG'",
    "Secret": "$2y$12$s.YfVZdfvAuO/Iz6fte5iO..ZbbEgreZnDcYOGvX4NGJskYQIstcG",
    "File": "dataset/leaky-repo/db/dump.sql",
    "SymlinkFile": "",
    "Commit": "4c7775b298bf64657cc1cc956a72a0ee6250c5b4",
    "Entropy": 5.0395722,
    "Author": "André Breuer",
    "Email": "andre.breuer@ndaal.eu",
    "Date": "2023-08-23T06:51:20Z",
    "Message": "Add ignore rule for yamllint",
    "Tags": [],
    "RuleID": "linux-encrypted-passwords",
    "Fingerprint": "4c7775b298bf64657cc1cc956a72a0ee6250c5b4:dataset/leaky-repo/db/dump.sql:linux-encrypted-passwords:32"
  },
  {
    "Description": "Encrypted passwords in Linux files",
    "StartLine": 33,
    "EndLine": 33,
    "StartColumn": 16,
    "EndColumn": 77,
    "Match": "'$2y$12$Sq//4hEpn1z91c3I/iU67.rqaHNtD3ucwG0Ncx7vOsHST4Jsr2Q0C'",
    "Secret": "$2y$12$Sq//4hEpn1z91c3I/iU67.rqaHNtD3ucwG0Ncx7vOsHST4Jsr2Q0C",
    "File": "dataset/leaky-repo/db/dump.sql",
    "SymlinkFile": "",
    "Commit": "4c7775b298bf64657cc1cc956a72a0ee6250c5b4",
    "Entropy": 5.1773167,
    "Author": "André Breuer",
    "Email": "andre.breuer@ndaal.eu",
    "Date": "2023-08-23T06:51:20Z",
    "Message": "Add ignore rule for yamllint",
    "Tags": [],
    "RuleID": "linux-encrypted-passwords",
    "Fingerprint": "4c7775b298bf64657cc1cc956a72a0ee6250c5b4:dataset/leaky-repo/db/dump.sql:linux-encrypted-passwords:33"
  },
  {
    "Description": "Encrypted passwords in Linux files",
    "StartLine": 34,
    "EndLine": 34,
    "StartColumn": 18,
    "EndColumn": 79,
    "Match": "'$2y$12$3iskP41QVYgh2GFesX2Rpe0DstoL9GpIsvYxM4VI24jcILuCha3O2'",
    "Secret": "$2y$12$3iskP41QVYgh2GFesX2Rpe0DstoL9GpIsvYxM4VI24jcILuCha3O2",
    "File": "dataset/leaky-repo/db/dump.sql",
    "SymlinkFile": "",
    "Commit": "4c7775b298bf64657cc1cc956a72a0ee6250c5b4",
    "Entropy": 4.977317,
    "Author": "André Breuer",
    "Email": "andre.breuer@ndaal.eu",
    "Date": "2023-08-23T06:51:20Z",
    "Message": "Add ignore rule for yamllint",
    "Tags": [],
    "RuleID": "linux-encrypted-passwords",
    "Fingerprint": "4c7775b298bf64657cc1cc956a72a0ee6250c5b4:dataset/leaky-repo/db/dump.sql:linux-encrypted-passwords:34"
  },
  {
    "Description": "Encrypted passwords in Linux files",
    "StartLine": 35,
    "EndLine": 35,
    "StartColumn": 16,
    "EndColumn": 77,
    "Match": "'$2y$12$hnktY9dEP/LexZjZ5b9B7ubzgxjO2393dWDaregvwPPaiRicOYkpu'",
    "Secret": "$2y$12$hnktY9dEP/LexZjZ5b9B7ubzgxjO2393dWDaregvwPPaiRicOYkpu",
    "File": "dataset/leaky-repo/db/dump.sql",
    "SymlinkFile": "",
    "Commit": "4c7775b298bf64657cc1cc956a72a0ee6250c5b4",
    "Entropy": 5.1232314,
    "Author": "André Breuer",
    "Email": "andre.breuer@ndaal.eu",
    "Date": "2023-08-23T06:51:20Z",
    "Message": "Add ignore rule for yamllint",
    "Tags": [],
    "RuleID": "linux-encrypted-passwords",
    "Fingerprint": "4c7775b298bf64657cc1cc956a72a0ee6250c5b4:dataset/leaky-repo/db/dump.sql:linux-encrypted-passwords:35"
  },
  {
    "Description": "Encrypted passwords in Linux files",
    "StartLine": 36,
    "EndLine": 36,
    "StartColumn": 16,
    "EndColumn": 77,
    "Match": "'$2y$12$M593ZP8u9pOnJiBIUbyW1.r8KfCy8uv9UCgDlX2oj3OtHmibEsQie'",
    "Secret": "$2y$12$M593ZP8u9pOnJiBIUbyW1.r8KfCy8uv9UCgDlX2oj3OtHmibEsQie",
    "File": "dataset/leaky-repo/db/dump.sql",
    "SymlinkFile": "",
    "Commit": "4c7775b298bf64657cc1cc956a72a0ee6250c5b4",
    "Entropy": 5.1980686,
    "Author": "André Breuer",
    "Email": "andre.breuer@ndaal.eu",
    "Date": "2023-08-23T06:51:20Z",
    "Message": "Add ignore rule for yamllint",
    "Tags": [],
    "RuleID": "linux-encrypted-passwords",
    "Fingerprint": "4c7775b298bf64657cc1cc956a72a0ee6250c5b4:dataset/leaky-repo/db/dump.sql:linux-encrypted-passwords:36"
  },
  {
    "Description": "Encrypted passwords in Linux files",
    "StartLine": 37,
    "EndLine": 37,
    "StartColumn": 17,
    "EndColumn": 78,
    "Match": "'$2y$12$GEu9AWgT/Jf9Kgj/WEUanOkoa5OBC6W4cPkGeuVyROcS9T1U6orX.'",
    "Secret": "$2y$12$GEu9AWgT/Jf9Kgj/WEUanOkoa5OBC6W4cPkGeuVyROcS9T1U6orX.",
    "File": "dataset/leaky-repo/db/dump.sql",
    "SymlinkFile": "",
    "Commit": "4c7775b298bf64657cc1cc956a72a0ee6250c5b4",
    "Entropy": 5.089898,
    "Author": "André Breuer",
    "Email": "andre.breuer@ndaal.eu",
    "Date": "2023-08-23T06:51:20Z",
    "Message": "Add ignore rule for yamllint",
    "Tags": [],
    "RuleID": "linux-encrypted-passwords",
    "Fingerprint": "4c7775b298bf64657cc1cc956a72a0ee6250c5b4:dataset/leaky-repo/db/dump.sql:linux-encrypted-passwords:37"
  },
  {
    "Description": "Encrypted passwords in Linux files",
    "StartLine": 38,
    "EndLine": 38,
    "StartColumn": 17,
    "EndColumn": 78,
    "Match": "'$2y$12$hjrJNp/UijB4YKg5rMhDeOoqUT5Oe2T7pTfxCEgyfgYtrHC5ph36W'",
    "Secret": "$2y$12$hjrJNp/UijB4YKg5rMhDeOoqUT5Oe2T7pTfxCEgyfgYtrHC5ph36W",
    "File": "dataset/leaky-repo/db/dump.sql",
    "SymlinkFile": "",
    "Commit": "4c7775b298bf64657cc1cc956a72a0ee6250c5b4",
    "Entropy": 5.006239,
    "Author": "André Breuer",
    "Email": "andre.breuer@ndaal.eu",
    "Date": "2023-08-23T06:51:20Z",
    "Message": "Add ignore rule for yamllint",
    "Tags": [],
    "RuleID": "linux-encrypted-passwords",
    "Fingerprint": "4c7775b298bf64657cc1cc956a72a0ee6250c5b4:dataset/leaky-repo/db/dump.sql:linux-encrypted-passwords:38"
  },
  {
    "Description": "Encrypted passwords in Linux files",
    "StartLine": 39,
    "EndLine": 39,
    "StartColumn": 18,
    "EndColumn": 79,
    "Match": "'$2y$12$lipAFqG0QyyYKa.S16oTNOdFgkr3svEUx7JOl1HYU4m03oYFq89Uq'",
    "Secret": "$2y$12$lipAFqG0QyyYKa.S16oTNOdFgkr3svEUx7JOl1HYU4m03oYFq89Uq",
    "File": "dataset/leaky-repo/db/dump.sql",
    "SymlinkFile": "",
    "Commit": "4c7775b298bf64657cc1cc956a72a0ee6250c5b4",
    "Entropy": 5.1521535,
    "Author": "André Breuer",
    "Email": "andre.breuer@ndaal.eu",
    "Date": "2023-08-23T06:51:20Z",
    "Message": "Add ignore rule for yamllint",
    "Tags": [],
    "RuleID": "linux-encrypted-passwords",
    "Fingerprint": "4c7775b298bf64657cc1cc956a72a0ee6250c5b4:dataset/leaky-repo/db/dump.sql:linux-encrypted-passwords:39"
  },
  {
    "Description": "Encrypted passwords in Linux files",
    "StartLine": 40,
    "EndLine": 40,
    "StartColumn": 18,
    "EndColumn": 79,
    "Match": "'$2y$12$/jJGIYh9wizWMFIcu79TEucXzYtvRdn3YxUpGUKnoZT1B6Gv2taSm'",
    "Secret": "$2y$12$/jJGIYh9wizWMFIcu79TEucXzYtvRdn3YxUpGUKnoZT1B6Gv2taSm",
    "File": "dataset/leaky-repo/db/dump.sql",
    "SymlinkFile": "",
    "Commit": "4c7775b298bf64657cc1cc956a72a0ee6250c5b4",
    "Entropy": 5.2232313,
    "Author": "André Breuer",
    "Email": "andre.breuer@ndaal.eu",
    "Date": "2023-08-23T06:51:20Z",
    "Message": "Add ignore rule for yamllint",
    "Tags": [],
    "RuleID": "linux-encrypted-passwords",
    "Fingerprint": "4c7775b298bf64657cc1cc956a72a0ee6250c5b4:dataset/leaky-repo/db/dump.sql:linux-encrypted-passwords:40"
  },
  {
    "Description": "Encrypted passwords in Linux files",
    "StartLine": 41,
    "EndLine": 41,
    "StartColumn": 19,
    "EndColumn": 80,
    "Match": "'$2y$12$kZ55ticjwXD9d/A5o3y8..fA7/1qycT2befZ4QrCjJCfrxk415gUy'",
    "Secret": "$2y$12$kZ55ticjwXD9d/A5o3y8..fA7/1qycT2befZ4QrCjJCfrxk415gUy",
    "File": "dataset/leaky-repo/db/dump.sql",
    "SymlinkFile": "",
    "Commit": "4c7775b298bf64657cc1cc956a72a0ee6250c5b4",
    "Entropy": 4.989898,
    "Author": "André Breuer",
    "Email": "andre.breuer@ndaal.eu",
    "Date": "2023-08-23T06:51:20Z",
    "Message": "Add ignore rule for yamllint",
    "Tags": [],
    "RuleID": "linux-encrypted-passwords",
    "Fingerprint": "4c7775b298bf64657cc1cc956a72a0ee6250c5b4:dataset/leaky-repo/db/dump.sql:linux-encrypted-passwords:41"
  },
  {
    "Description": "IPv4 address",
    "StartLine": 3,
    "EndLine": 3,
    "StartColumn": 11,
    "EndColumn": 19,
    "Match": "127.0.0.1",
    "Secret": "127.0.0.1",
    "File": "dataset/leaky-repo/db/dump.sql",
    "SymlinkFile": "",
    "Commit": "4c7775b298bf64657cc1cc956a72a0ee6250c5b4",
    "Entropy": 2.1971598,
    "Author": "André Breuer",
    "Email": "andre.breuer@ndaal.eu",
    "Date": "2023-08-23T06:51:20Z",
    "Message": "Add ignore rule for yamllint",
    "Tags": [],
    "RuleID": "ipv4",
    "Fingerprint": "4c7775b298bf64657cc1cc956a72a0ee6250c5b4:dataset/leaky-repo/db/dump.sql:ipv4:3"
  },
  {
    "Description": "Finding times formatted in 12 hour time format",
    "StartLine": 12,
    "EndLine": 12,
    "StartColumn": 27,
    "EndColumn": 31,
    "Match": "00:00",
    "Secret": "00:00",
    "File": "dataset/leaky-repo/db/dump.sql",
    "SymlinkFile": "",
    "Commit": "4c7775b298bf64657cc1cc956a72a0ee6250c5b4",
    "Entropy": 0.7219281,
    "Author": "André Breuer",
    "Email": "andre.breuer@ndaal.eu",
    "Date": "2023-08-23T06:51:20Z",
    "Message": "Add ignore rule for yamllint",
    "Tags": [],
    "RuleID": "time",
    "Fingerprint": "4c7775b298bf64657cc1cc956a72a0ee6250c5b4:dataset/leaky-repo/db/dump.sql:time:12"
  },
  {
    "Description": "Secrets in XML value of the key-value-pair",
    "StartLine": 13,
    "EndLine": 13,
    "StartColumn": 14,
    "EndColumn": 34,
    "Match": "\u003cPass\u003eExamplePas123\u003c/",
    "Secret": "ExamplePas123",
    "File": "dataset/leaky-repo/filezilla/filezilla.xml",
    "SymlinkFile": "",
    "Commit": "4c7775b298bf64657cc1cc956a72a0ee6250c5b4",
    "Entropy": 3.5465937,
    "Author": "André Breuer",
    "Email": "andre.breuer@ndaal.eu",
    "Date": "2023-08-23T06:51:20Z",
    "Message": "Add ignore rule for yamllint",
    "Tags": [],
    "RuleID": "xml-secrets-value",
    "Fingerprint": "4c7775b298bf64657cc1cc956a72a0ee6250c5b4:dataset/leaky-repo/filezilla/filezilla.xml:xml-secrets-value:13"
  },
  {
    "Description": "Secrets in XML value of the key-value-pair",
    "StartLine": 13,
    "EndLine": 13,
    "StartColumn": 5,
    "EndColumn": 98,
    "Match": "\u003cPass encoding=\"base64\"\u003eNjllNWU5ZWMwZDU0MmU5Y2QwOTY4MWM5YzZhMDdkYWVmNjg3OWE3MDMzM2Q4MWJmCg==\u003c/",
    "Secret": "NjllNWU5ZWMwZDU0MmU5Y2QwOTY4MWM5YzZhMDdkYWVmNjg3OWE3MDMzM2Q4MWJmCg==",
    "File": "dataset/leaky-repo/filezilla/recentservers.xml",
    "SymlinkFile": "",
    "Commit": "4c7775b298bf64657cc1cc956a72a0ee6250c5b4",
    "Entropy": 4.5791035,
    "Author": "André Breuer",
    "Email": "andre.breuer@ndaal.eu",
    "Date": "2023-08-23T06:51:20Z",
    "Message": "Add ignore rule for yamllint",
    "Tags": [],
    "RuleID": "xml-secrets-value",
    "Fingerprint": "4c7775b298bf64657cc1cc956a72a0ee6250c5b4:dataset/leaky-repo/filezilla/recentservers.xml:xml-secrets-value:13"
  },
  {
    "Description": "Secrets in XML value of the key-value-pair",
    "StartLine": 30,
    "EndLine": 30,
    "StartColumn": 5,
    "EndColumn": 98,
    "Match": "\u003cPass encoding=\"base64\"\u003eNjllNWU5ZWMwZDU0MmU5Y2QwOTY4MWM5YzZhMDdkYWVmNjg3OWE3MDMzM2Q4MWJmCg==\u003c/",
    "Secret": "NjllNWU5ZWMwZDU0MmU5Y2QwOTY4MWM5YzZhMDdkYWVmNjg3OWE3MDMzM2Q4MWJmCg==",
    "File": "dataset/leaky-repo/filezilla/recentservers.xml",
    "SymlinkFile": "",
    "Commit": "4c7775b298bf64657cc1cc956a72a0ee6250c5b4",
    "Entropy": 4.5791035,
    "Author": "André Breuer",
    "Email": "andre.breuer@ndaal.eu",
    "Date": "2023-08-23T06:51:20Z",
    "Message": "Add ignore rule for yamllint",
    "Tags": [],
    "RuleID": "xml-secrets-value",
    "Fingerprint": "4c7775b298bf64657cc1cc956a72a0ee6250c5b4:dataset/leaky-repo/filezilla/recentservers.xml:xml-secrets-value:30"
  },
  {
    "Description": "File names of credentials",
    "StartLine": 0,
    "EndLine": 0,
    "StartColumn": 0,
    "EndColumn": 0,
    "Match": "file detected: dataset/leaky-repo/proftpdpasswd",
    "Secret": "",
    "File": "dataset/leaky-repo/proftpdpasswd",
    "SymlinkFile": "",
    "Commit": "4c7775b298bf64657cc1cc956a72a0ee6250c5b4",
    "Entropy": 0,
    "Author": "André Breuer",
    "Email": "andre.breuer@ndaal.eu",
    "Date": "2023-08-23T06:51:20Z",
    "Message": "Add ignore rule for yamllint",
    "Tags": [],
    "RuleID": "common-credential-file",
    "Fingerprint": "4c7775b298bf64657cc1cc956a72a0ee6250c5b4:dataset/leaky-repo/proftpdpasswd:common-credential-file:0"
  },
  {
    "Description": "PKCS8 private key",
    "StartLine": 1,
    "EndLine": 1,
    "StartColumn": 1,
    "EndColumn": 27,
    "Match": "-----BEGIN PRIVATE KEY-----",
    "Secret": "-----BEGIN PRIVATE KEY-----",
    "File": "dataset/leaky-repo/misc-keys/cert-key.pem",
    "SymlinkFile": "",
    "Commit": "4c7775b298bf64657cc1cc956a72a0ee6250c5b4",
    "Entropy": 3.2002888,
    "Author": "André Breuer",
    "Email": "andre.breuer@ndaal.eu",
    "Date": "2023-08-23T06:51:20Z",
    "Message": "Add ignore rule for yamllint",
    "Tags": [],
    "RuleID": "PKCS8-PK",
    "Fingerprint": "4c7775b298bf64657cc1cc956a72a0ee6250c5b4:dataset/leaky-repo/misc-keys/cert-key.pem:PKCS8-PK:1"
  },
  {
    "Description": "File name extensions of credentials",
    "StartLine": 0,
    "EndLine": 0,
    "StartColumn": 0,
    "EndColumn": 0,
    "Match": "file detected: dataset/leaky-repo/misc-keys/putty-example.ppk",
    "Secret": "",
    "File": "dataset/leaky-repo/misc-keys/putty-example.ppk",
    "SymlinkFile": "",
    "Commit": "4c7775b298bf64657cc1cc956a72a0ee6250c5b4",
    "Entropy": 0,
    "Author": "André Breuer",
    "Email": "andre.breuer@ndaal.eu",
    "Date": "2023-08-23T06:51:20Z",
    "Message": "Add ignore rule for yamllint",
    "Tags": [],
    "RuleID": "credential-file-extension",
    "Fingerprint": "4c7775b298bf64657cc1cc956a72a0ee6250c5b4:dataset/leaky-repo/misc-keys/putty-example.ppk:credential-file-extension:0"
  },
  {
    "Description": "Hardcoded login in JavaScript or TypeScript files",
    "StartLine": 7,
    "EndLine": 7,
    "StartColumn": 11,
    "EndColumn": 60,
    "Match": "login('username@example.com', 'salesforcepassword'",
    "Secret": "salesforcepassword",
    "File": "dataset/leaky-repo/web/js/salesforce.js",
    "SymlinkFile": "",
    "Commit": "4c7775b298bf64657cc1cc956a72a0ee6250c5b4",
    "Entropy": 3.2810361,
    "Author": "André Breuer",
    "Email": "andre.breuer@ndaal.eu",
    "Date": "2023-08-23T06:51:20Z",
    "Message": "Add ignore rule for yamllint",
    "Tags": [],
    "RuleID": "javascript-typescript-login",
    "Fingerprint": "4c7775b298bf64657cc1cc956a72a0ee6250c5b4:dataset/leaky-repo/web/js/salesforce.js:javascript-typescript-login:7"
  },
  {
    "Description": "File names of credentials",
    "StartLine": 0,
    "EndLine": 0,
    "StartColumn": 0,
    "EndColumn": 0,
    "Match": "file detected: dataset/leaky-repo/web/var/www/.env",
    "Secret": "",
    "File": "dataset/leaky-repo/web/var/www/.env",
    "SymlinkFile": "",
    "Commit": "4c7775b298bf64657cc1cc956a72a0ee6250c5b4",
    "Entropy": 0,
    "Author": "André Breuer",
    "Email": "andre.breuer@ndaal.eu",
    "Date": "2023-08-23T06:51:20Z",
    "Message": "Add ignore rule for yamllint",
    "Tags": [],
    "RuleID": "common-credential-file",
    "Fingerprint": "4c7775b298bf64657cc1cc956a72a0ee6250c5b4:dataset/leaky-repo/web/var/www/.env:common-credential-file:0"
  },
  {
    "Description": "ASP.NET Validation Key",
    "StartLine": 33,
    "EndLine": 33,
    "StartColumn": 24,
    "EndColumn": 27,
    "Match": "1234",
    "Secret": "1234",
    "File": "dataset/leaky-repo/web/var/www/.env",
    "SymlinkFile": "",
    "Commit": "4c7775b298bf64657cc1cc956a72a0ee6250c5b4",
    "Entropy": 2,
    "Author": "André Breuer",
    "Email": "andre.breuer@ndaal.eu",
    "Date": "2023-08-23T06:51:20Z",
    "Message": "Add ignore rule for yamllint",
    "Tags": [],
    "RuleID": "aspnet-validation-key-2110",
    "Fingerprint": "4c7775b298bf64657cc1cc956a72a0ee6250c5b4:dataset/leaky-repo/web/var/www/.env:aspnet-validation-key-2110:33"
  },
  {
    "Description": "File names of credentials",
    "StartLine": 0,
    "EndLine": 0,
    "StartColumn": 0,
    "EndColumn": 0,
    "Match": "file detected: dataset/leaky-repo/web/var/www/public_html/.htpasswd",
    "Secret": "",
    "File": "dataset/leaky-repo/web/var/www/public_html/.htpasswd",
    "SymlinkFile": "",
    "Commit": "4c7775b298bf64657cc1cc956a72a0ee6250c5b4",
    "Entropy": 0,
    "Author": "André Breuer",
    "Email": "andre.breuer@ndaal.eu",
    "Date": "2023-08-23T06:51:20Z",
    "Message": "Add ignore rule for yamllint",
    "Tags": [],
    "RuleID": "common-credential-file",
    "Fingerprint": "4c7775b298bf64657cc1cc956a72a0ee6250c5b4:dataset/leaky-repo/web/var/www/public_html/.htpasswd:common-credential-file:0"
  },
  {
    "Description": "Hardcoded credentials in PHP files",
    "StartLine": 11,
    "EndLine": 11,
    "StartColumn": 9,
    "EndColumn": 26,
    "Match": "passwd = 'pass123'",
    "Secret": "passwd = 'pass123'",
    "File": "dataset/leaky-repo/web/var/www/public_html/config.php",
    "SymlinkFile": "",
    "Commit": "4c7775b298bf64657cc1cc956a72a0ee6250c5b4",
    "Entropy": 3.2810361,
    "Author": "André Breuer",
    "Email": "andre.breuer@ndaal.eu",
    "Date": "2023-08-23T06:51:20Z",
    "Message": "Add ignore rule for yamllint",
    "Tags": [],
    "RuleID": "php-credentials",
    "Fingerprint": "4c7775b298bf64657cc1cc956a72a0ee6250c5b4:dataset/leaky-repo/web/var/www/public_html/config.php:php-credentials:11"
  },
  {
    "Description": "yaml secrets",
    "StartLine": 14,
    "EndLine": 14,
    "StartColumn": 2,
    "EndColumn": 148,
    "Match": "  secret_key_base: e0ec946fcefea5ce0d4d924f3c8db11dffeb7d10b320a69133c47a9641ab7d204d22c94f10c1ce1e187c643805fec5b2d2ba322c17bac533c110e6c6378ba84c",
    "Secret": "e0ec946fcefea5ce0d4d924f3c8db11dffeb7d10b320a69133c47a9641ab7d204d22c94f10c1ce1e187c643805fec5b2d2ba322c17bac533c110e6c6378ba84c",
    "File": "dataset/leaky-repo/web/ruby/secrets.yml",
    "SymlinkFile": "",
    "Commit": "4c7775b298bf64657cc1cc956a72a0ee6250c5b4",
    "Entropy": 3.922094,
    "Author": "André Breuer",
    "Email": "andre.breuer@ndaal.eu",
    "Date": "2023-08-23T06:51:20Z",
    "Message": "Add ignore rule for yamllint",
    "Tags": [],
    "RuleID": "yaml-secrets",
    "Fingerprint": "4c7775b298bf64657cc1cc956a72a0ee6250c5b4:dataset/leaky-repo/web/ruby/secrets.yml:yaml-secrets:14"
  },
  {
    "Description": "yaml secrets",
    "StartLine": 17,
    "EndLine": 17,
    "StartColumn": 2,
    "EndColumn": 148,
    "Match": "  secret_key_base: 96dc2e349b1236b9e5915f1526b5e28e19a6557a88026007632c6c11da7cb5952ae55c520eb0d6fa78b972cbe8e855887f539edea5f969636792e54469e3c96e",
    "Secret": "96dc2e349b1236b9e5915f1526b5e28e19a6557a88026007632c6c11da7cb5952ae55c520eb0d6fa78b972cbe8e855887f539edea5f969636792e54469e3c96e",
    "File": "dataset/leaky-repo/web/ruby/secrets.yml",
    "SymlinkFile": "",
    "Commit": "4c7775b298bf64657cc1cc956a72a0ee6250c5b4",
    "Entropy": 3.8485568,
    "Author": "André Breuer",
    "Email": "andre.breuer@ndaal.eu",
    "Date": "2023-08-23T06:51:20Z",
    "Message": "Add ignore rule for yamllint",
    "Tags": [],
    "RuleID": "yaml-secrets",
    "Fingerprint": "4c7775b298bf64657cc1cc956a72a0ee6250c5b4:dataset/leaky-repo/web/ruby/secrets.yml:yaml-secrets:17"
  },
  {
    "Description": "yaml secrets",
    "StartLine": 22,
    "EndLine": 22,
    "StartColumn": 2,
    "EndColumn": 148,
    "Match": "  secret_key_base: 8969518770d7484053e72f09c7bd37995d79c320e618ce3ec7a44b7c43fafff1615622a01513789bff7ac7a5201c6382bb6851632c8aa63e76bf0f0a01ed0e17",
    "Secret": "8969518770d7484053e72f09c7bd37995d79c320e618ce3ec7a44b7c43fafff1615622a01513789bff7ac7a5201c6382bb6851632c8aa63e76bf0f0a01ed0e17",
    "File": "dataset/leaky-repo/web/ruby/secrets.yml",
    "SymlinkFile": "",
    "Commit": "4c7775b298bf64657cc1cc956a72a0ee6250c5b4",
    "Entropy": 3.9448838,
    "Author": "André Breuer",
    "Email": "andre.breuer@ndaal.eu",
    "Date": "2023-08-23T06:51:20Z",
    "Message": "Add ignore rule for yamllint",
    "Tags": [],
    "RuleID": "yaml-secrets",
    "Fingerprint": "4c7775b298bf64657cc1cc956a72a0ee6250c5b4:dataset/leaky-repo/web/ruby/secrets.yml:yaml-secrets:22"
  },
  {
    "Description": "WP-Config",
    "StartLine": 33,
    "EndLine": 33,
    "StartColumn": 2,
    "EndColumn": 95,
    "Match": "define('AUTH_KEY',         'MW1pxMctoyA(\u003eM%0Vl 2(#o0|2$cB+K|.G$hB~4`Juw@]:(5;oVUl\u003c\u003cW3^e_R-fg')",
    "Secret": "MW1pxMctoyA(\u003eM%0Vl 2(#o0|2$cB+K|.G$hB~4`Juw@]:(5;oVUl\u003c\u003cW3^e_R-fg",
    "File": "dataset/leaky-repo/web/var/www/public_html/wp-config.php",
    "SymlinkFile": "",
    "Commit": "4c7775b298bf64657cc1cc956a72a0ee6250c5b4",
    "Entropy": 5.464615,
    "Author": "André Breuer",
    "Email": "andre.breuer@ndaal.eu",
    "Date": "2023-08-23T06:51:20Z",
    "Message": "Add ignore rule for yamllint",
    "Tags": [],
    "RuleID": "wp-config",
    "Fingerprint": "4c7775b298bf64657cc1cc956a72a0ee6250c5b4:dataset/leaky-repo/web/var/www/public_html/wp-config.php:wp-config:33"
  },
  {
    "Description": "WP-Config",
    "StartLine": 35,
    "EndLine": 35,
    "StartColumn": 2,
    "EndColumn": 95,
    "Match": "define('SECURE_AUTH_KEY',  'Y\u003eY9.5Ch0-3cq|=vbus[IeF(OJ9yZ|SQ#:iG;NSa+GJmj _1Ed(cVZ7r#+JMlA,S')",
    "Secret": "Y\u003eY9.5Ch0-3cq|=vbus[IeF(OJ9yZ|SQ#:iG;NSa+GJmj _1Ed(cVZ7r#+JMlA,S",
    "File": "dataset/leaky-repo/web/var/www/public_html/wp-config.php",
    "SymlinkFile": "",
    "Commit": "4c7775b298bf64657cc1cc956a72a0ee6250c5b4",
    "Entropy": 5.57016,
    "Author": "André Breuer",
    "Email": "andre.breuer@ndaal.eu",
    "Date": "2023-08-23T06:51:20Z",
    "Message": "Add ignore rule for yamllint",
    "Tags": [],
    "RuleID": "wp-config",
    "Fingerprint": "4c7775b298bf64657cc1cc956a72a0ee6250c5b4:dataset/leaky-repo/web/var/www/public_html/wp-config.php:wp-config:35"
  },
  {
    "Description": "WP-Config",
    "StartLine": 37,
    "EndLine": 37,
    "StartColumn": 2,
    "EndColumn": 95,
    "Match": "define('LOGGED_IN_KEY',    'Q$:B]zZjN-AdT\u003c\u003eh7V1.vm+k^|}2wVZf]Xw#QEZ[-pSohv+Kj0W-Z|:|g$-+E8:8')",
    "Secret": "Q$:B]zZjN-AdT\u003c\u003eh7V1.vm+k^|}2wVZf]Xw#QEZ[-pSohv+Kj0W-Z|:|g$-+E8:8",
    "File": "dataset/leaky-repo/web/var/www/public_html/wp-config.php",
    "SymlinkFile": "",
    "Commit": "4c7775b298bf64657cc1cc956a72a0ee6250c5b4",
    "Entropy": 5.214615,
    "Author": "André Breuer",
    "Email": "andre.breuer@ndaal.eu",
    "Date": "2023-08-23T06:51:20Z",
    "Message": "Add ignore rule for yamllint",
    "Tags": [],
    "RuleID": "wp-config",
    "Fingerprint": "4c7775b298bf64657cc1cc956a72a0ee6250c5b4:dataset/leaky-repo/web/var/www/public_html/wp-config.php:wp-config:37"
  },
  {
    "Description": "WP-Config",
    "StartLine": 39,
    "EndLine": 39,
    "StartColumn": 2,
    "EndColumn": 95,
    "Match": "define('NONCE_KEY',        '}Fi\u003e\u003e0a{\u003e akEdJ1K3c}([(:x;K[)ZQ3F3cttcpd EFORd.%R|*|rdRs#-L-\u0026)P1')",
    "Secret": "}Fi\u003e\u003e0a{\u003e akEdJ1K3c}([(:x;K[)ZQ3F3cttcpd EFORd.%R|*|rdRs#-L-\u0026)P1",
    "File": "dataset/leaky-repo/web/var/www/public_html/wp-config.php",
    "SymlinkFile": "",
    "Commit": "4c7775b298bf64657cc1cc956a72a0ee6250c5b4",
    "Entropy": 5.1285243,
    "Author": "André Breuer",
    "Email": "andre.breuer@ndaal.eu",
    "Date": "2023-08-23T06:51:20Z",
    "Message": "Add ignore rule for yamllint",
    "Tags": [],
    "RuleID": "wp-config",
    "Fingerprint": "4c7775b298bf64657cc1cc956a72a0ee6250c5b4:dataset/leaky-repo/web/var/www/public_html/wp-config.php:wp-config:39"
  },
  {
    "Description": "WP-Config",
    "StartLine": 41,
    "EndLine": 41,
    "StartColumn": 2,
    "EndColumn": 95,
    "Match": "define('AUTH_SALT',        'j@cGIZJfObpPU);AZgYH5,ubbSlUp|ZnLZNlq|;tkFe5xc(=_0[LKbF71T.EE ~9')",
    "Secret": "j@cGIZJfObpPU);AZgYH5,ubbSlUp|ZnLZNlq|;tkFe5xc(=_0[LKbF71T.EE ~9",
    "File": "dataset/leaky-repo/web/var/www/public_html/wp-config.php",
    "SymlinkFile": "",
    "Commit": "4c7775b298bf64657cc1cc956a72a0ee6250c5b4",
    "Entropy": 5.4375,
    "Author": "André Breuer",
    "Email": "andre.breuer@ndaal.eu",
    "Date": "2023-08-23T06:51:20Z",
    "Message": "Add ignore rule for yamllint",
    "Tags": [],
    "RuleID": "wp-config",
    "Fingerprint": "4c7775b298bf64657cc1cc956a72a0ee6250c5b4:dataset/leaky-repo/web/var/www/public_html/wp-config.php:wp-config:41"
  },
  {
    "Description": "WP-Config",
    "StartLine": 45,
    "EndLine": 45,
    "StartColumn": 2,
    "EndColumn": 95,
    "Match": "define('LOGGED_IN_SALT',   'of@~yp:v@SK;Y}hzUo4=bz9WmX\u0026vEw5TO dD$\u003c2djGcE+Qz,Sb9i:{+U\u003c#eM-RmE')",
    "Secret": "of@~yp:v@SK;Y}hzUo4=bz9WmX\u0026vEw5TO dD$\u003c2djGcE+Qz,Sb9i:{+U\u003c#eM-RmE",
    "File": "dataset/leaky-repo/web/var/www/public_html/wp-config.php",
    "SymlinkFile": "",
    "Commit": "4c7775b298bf64657cc1cc956a72a0ee6250c5b4",
    "Entropy": 5.47641,
    "Author": "André Breuer",
    "Email": "andre.breuer@ndaal.eu",
    "Date": "2023-08-23T06:51:20Z",
    "Message": "Add ignore rule for yamllint",
    "Tags": [],
    "RuleID": "wp-config",
    "Fingerprint": "4c7775b298bf64657cc1cc956a72a0ee6250c5b4:dataset/leaky-repo/web/var/www/public_html/wp-config.php:wp-config:45"
  },
  {
    "Description": "WP-Config",
    "StartLine": 47,
    "EndLine": 47,
    "StartColumn": 2,
    "EndColumn": 95,
    "Match": "define('NONCE_SALT',       ':9URM*n56|I|Rf$|ud0cFJ\u003cKAA\u003c1h_w]A!/?])\u003cq+!qK\u003e+Lq\u0026j9^-!{%%pW. ,Z=')",
    "Secret": ":9URM*n56|I|Rf$|ud0cFJ\u003cKAA\u003c1h_w]A!/?])\u003cq+!qK\u003e+Lq\u0026j9^-!{%%pW. ,Z=",
    "File": "dataset/leaky-repo/web/var/www/public_html/wp-config.php",
    "SymlinkFile": "",
    "Commit": "4c7775b298bf64657cc1cc956a72a0ee6250c5b4",
    "Entropy": 5.4410243,
    "Author": "André Breuer",
    "Email": "andre.breuer@ndaal.eu",
    "Date": "2023-08-23T06:51:20Z",
    "Message": "Add ignore rule for yamllint",
    "Tags": [],
    "RuleID": "wp-config",
    "Fingerprint": "4c7775b298bf64657cc1cc956a72a0ee6250c5b4:dataset/leaky-repo/web/var/www/public_html/wp-config.php:wp-config:47"
  },
  {
    "Description": "Hardcoded secrets in Python scripts",
    "StartLine": 24,
    "EndLine": 24,
    "StartColumn": 2,
    "EndColumn": 66,
    "Match": "SECRET_KEY = 'zh!=!gq(w^_t[sBR29954x)HI+$ehwss*xYNQeu([xcWMhdzzr'",
    "Secret": "zh!=!gq(w^_t[sBR29954x)HI+$ehwss*xYNQeu([xcWMhdzzr",
    "File": "dataset/leaky-repo/web/django/settings.py",
    "SymlinkFile": "",
    "Commit": "4c7775b298bf64657cc1cc956a72a0ee6250c5b4",
    "Entropy": 5.023465,
    "Author": "André Breuer",
    "Email": "andre.breuer@ndaal.eu",
    "Date": "2023-08-23T06:51:20Z",
    "Message": "Add ignore rule for yamllint",
    "Tags": [],
    "RuleID": "python-secrets",
    "Fingerprint": "4c7775b298bf64657cc1cc956a72a0ee6250c5b4:dataset/leaky-repo/web/django/settings.py:python-secrets:24"
  }
]
