[
  {
    "Description": "ASP.NET Validation Key",
    "StartLine": 8,
    "EndLine": 8,
    "StartColumn": 31,
    "EndColumn": 34,
    "Match": "1234",
    "Secret": "1234",
    "File": "dataset/detect-secrets-test-data/config.md",
    "SymlinkFile": "",
    "Commit": "4c7775b298bf64657cc1cc956a72a0ee6250c5b4",
    "Entropy": 2,
    "Author": "André Breuer",
    "Email": "andre.breuer@ndaal.eu",
    "Date": "2023-08-23T06:51:20Z",
    "Message": "Add ignore rule for yamllint",
    "Tags": [],
    "RuleID": "aspnet-validation-key-2110",
    "Fingerprint": "4c7775b298bf64657cc1cc956a72a0ee6250c5b4:dataset/detect-secrets-test-data/config.md:aspnet-validation-key-2110:8"
  },
  {
    "Description": "ASP.NET Validation Key",
    "StartLine": 2,
    "EndLine": 2,
    "StartColumn": 13,
    "EndColumn": 16,
    "Match": "1234",
    "Secret": "1234",
    "File": "dataset/detect-secrets-test-data/config.ini",
    "SymlinkFile": "",
    "Commit": "4c7775b298bf64657cc1cc956a72a0ee6250c5b4",
    "Entropy": 2,
    "Author": "André Breuer",
    "Email": "andre.breuer@ndaal.eu",
    "Date": "2023-08-23T06:51:20Z",
    "Message": "Add ignore rule for yamllint",
    "Tags": [],
    "RuleID": "aspnet-validation-key-2110",
    "Fingerprint": "4c7775b298bf64657cc1cc956a72a0ee6250c5b4:dataset/detect-secrets-test-data/config.ini:aspnet-validation-key-2110:2"
  },
  {
    "Description": "ASP.NET Validation Key",
    "StartLine": 2,
    "EndLine": 2,
    "StartColumn": 23,
    "EndColumn": 26,
    "Match": "1234",
    "Secret": "1234",
    "File": "dataset/detect-secrets-test-data/config.ini",
    "SymlinkFile": "",
    "Commit": "4c7775b298bf64657cc1cc956a72a0ee6250c5b4",
    "Entropy": 2,
    "Author": "André Breuer",
    "Email": "andre.breuer@ndaal.eu",
    "Date": "2023-08-23T06:51:20Z",
    "Message": "Add ignore rule for yamllint",
    "Tags": [],
    "RuleID": "aspnet-validation-key-2110",
    "Fingerprint": "4c7775b298bf64657cc1cc956a72a0ee6250c5b4:dataset/detect-secrets-test-data/config.ini:aspnet-validation-key-2110:2"
  },
  {
    "Description": "ASP.NET Validation Key",
    "StartLine": 6,
    "EndLine": 6,
    "StartColumn": 17,
    "EndColumn": 20,
    "Match": "1234",
    "Secret": "1234",
    "File": "dataset/detect-secrets-test-data/config.ini",
    "SymlinkFile": "",
    "Commit": "4c7775b298bf64657cc1cc956a72a0ee6250c5b4",
    "Entropy": 2,
    "Author": "André Breuer",
    "Email": "andre.breuer@ndaal.eu",
    "Date": "2023-08-23T06:51:20Z",
    "Message": "Add ignore rule for yamllint",
    "Tags": [],
    "RuleID": "aspnet-validation-key-2110",
    "Fingerprint": "4c7775b298bf64657cc1cc956a72a0ee6250c5b4:dataset/detect-secrets-test-data/config.ini:aspnet-validation-key-2110:6"
  },
  {
    "Description": "ASP.NET Validation Key",
    "StartLine": 22,
    "EndLine": 22,
    "StartColumn": 11,
    "EndColumn": 14,
    "Match": "1234",
    "Secret": "1234",
    "File": "dataset/detect-secrets-test-data/config.ini",
    "SymlinkFile": "",
    "Commit": "4c7775b298bf64657cc1cc956a72a0ee6250c5b4",
    "Entropy": 2,
    "Author": "André Breuer",
    "Email": "andre.breuer@ndaal.eu",
    "Date": "2023-08-23T06:51:20Z",
    "Message": "Add ignore rule for yamllint",
    "Tags": [],
    "RuleID": "aspnet-validation-key-2110",
    "Fingerprint": "4c7775b298bf64657cc1cc956a72a0ee6250c5b4:dataset/detect-secrets-test-data/config.ini:aspnet-validation-key-2110:22"
  },
  {
    "Description": "ASP.NET Validation Key",
    "StartLine": 3,
    "EndLine": 3,
    "StartColumn": 24,
    "EndColumn": 27,
    "Match": "1234",
    "Secret": "1234",
    "File": "dataset/detect-secrets-test-data/config.yaml",
    "SymlinkFile": "",
    "Commit": "4c7775b298bf64657cc1cc956a72a0ee6250c5b4",
    "Entropy": 2,
    "Author": "André Breuer",
    "Email": "andre.breuer@ndaal.eu",
    "Date": "2023-08-23T06:51:20Z",
    "Message": "Add ignore rule for yamllint",
    "Tags": [],
    "RuleID": "aspnet-validation-key-2110",
    "Fingerprint": "4c7775b298bf64657cc1cc956a72a0ee6250c5b4:dataset/detect-secrets-test-data/config.yaml:aspnet-validation-key-2110:3"
  },
  {
    "Description": "ASP.NET Validation Key",
    "StartLine": 4,
    "EndLine": 4,
    "StartColumn": 45,
    "EndColumn": 48,
    "Match": "1234",
    "Secret": "1234",
    "File": "dataset/detect-secrets-test-data/config.yaml",
    "SymlinkFile": "",
    "Commit": "4c7775b298bf64657cc1cc956a72a0ee6250c5b4",
    "Entropy": 2,
    "Author": "André Breuer",
    "Email": "andre.breuer@ndaal.eu",
    "Date": "2023-08-23T06:51:20Z",
    "Message": "Add ignore rule for yamllint",
    "Tags": [],
    "RuleID": "aspnet-validation-key-2110",
    "Fingerprint": "4c7775b298bf64657cc1cc956a72a0ee6250c5b4:dataset/detect-secrets-test-data/config.yaml:aspnet-validation-key-2110:4"
  },
  {
    "Description": "ASP.NET Validation Key",
    "StartLine": 105,
    "EndLine": 105,
    "StartColumn": 30,
    "EndColumn": 33,
    "Match": "1234",
    "Secret": "1234",
    "File": "dataset/leaky-repo/.bashrc",
    "SymlinkFile": "",
    "Commit": "4c7775b298bf64657cc1cc956a72a0ee6250c5b4",
    "Entropy": 2,
    "Author": "André Breuer",
    "Email": "andre.breuer@ndaal.eu",
    "Date": "2023-08-23T06:51:20Z",
    "Message": "Add ignore rule for yamllint",
    "Tags": [],
    "RuleID": "aspnet-validation-key-2110",
    "Fingerprint": "4c7775b298bf64657cc1cc956a72a0ee6250c5b4:dataset/leaky-repo/.bashrc:aspnet-validation-key-2110:105"
  },
  {
    "Description": "ASP.NET Validation Key",
    "StartLine": 33,
    "EndLine": 33,
    "StartColumn": 24,
    "EndColumn": 27,
    "Match": "1234",
    "Secret": "1234",
    "File": "dataset/leaky-repo/web/var/www/.env",
    "SymlinkFile": "",
    "Commit": "4c7775b298bf64657cc1cc956a72a0ee6250c5b4",
    "Entropy": 2,
    "Author": "André Breuer",
    "Email": "andre.breuer@ndaal.eu",
    "Date": "2023-08-23T06:51:20Z",
    "Message": "Add ignore rule for yamllint",
    "Tags": [],
    "RuleID": "aspnet-validation-key-2110",
    "Fingerprint": "4c7775b298bf64657cc1cc956a72a0ee6250c5b4:dataset/leaky-repo/web/var/www/.env:aspnet-validation-key-2110:33"
  }
]
